{"queryTime":"27 Seconds","totalCount":4242,"pageNumber":1,"perPage":200,"pageCount":200,"data":[{"id":880082,"name":"Ainvayi Ainvayi Mp3","duration":28},{"id":140030,"name":"Billa","duration":29},{"id":1334760,"name":"Sheesha","duration":18},{"id":1207470,"name":"Naruto","duration":29},{"id":5288,"name":"gun 33 alert","duration":4},{"id":875029,"name":"Dhoom 3 2012","duration":26},{"id":857674,"name":"Tu Mile Flute","duration":29},{"id":1007699,"name":"Crazy Track03","duration":29},{"id":67189,"name":"Sun is Up","duration":17},{"id":329345,"name":"Sheep Shagger","duration":22},{"id":112237,"name":"Zain Qatora","duration":29},{"id":48487,"name":"motivational 4d nation","duration":30},{"id":156049,"name":"Right Nw Na Na Na","duration":29},{"id":195644,"name":"Halokinesismp3","duration":29},{"id":240541,"name":"Adi Aathadi","duration":29},{"id":226206,"name":"Fc Barcelona","duration":30},{"id":948317,"name":"Shanghai Duaa Mp3","duration":29},{"id":23601,"name":"elctronic","duration":3},{"id":209092,"name":"Bachfuguedminor","duration":28},{"id":42774,"name":"baby phone cool","duration":26},{"id":194396,"name":"Digivice Call","duration":3},{"id":1236320,"name":"Tigertankmp3 Best","duration":28},{"id":226900,"name":"Mar De Copas","duration":28},{"id":789900,"name":"Aisha Original 2","duration":26},{"id":1175326,"name":"Home","duration":12},{"id":1336165,"name":"Yamali Mayik","duration":25},{"id":776939,"name":"Sms Mix","duration":4},{"id":835580,"name":"Sonarmp3","duration":1},{"id":5703,"name":"Urgent Message","duration":3},{"id":90667,"name":"Night and day","duration":18},{"id":835541,"name":"Asianmorningmp3","duration":3},{"id":1285621,"name":"Fur Tv","duration":26},{"id":872005,"name":"Santhanam","duration":2},{"id":9359,"name":"Sweet Dreams 1","duration":22},{"id":868457,"name":"Ishq Sufiyana","duration":28},{"id":153311,"name":"Me Matia Ke Guda","duration":29},{"id":21479,"name":"Free :)","duration":29},{"id":7286,"name":"Under My Thumb01","duration":16},{"id":84838,"name":"Silence 2010","duration":29},{"id":128021,"name":"7obi Alawal Wel A7ee","duration":29},{"id":5156,"name":"Nokia Guitar","duration":9},{"id":102243,"name":"you are an ass****","duration":4},{"id":33321,"name":"Dual Sof Sms","duration":3},{"id":872564,"name":"Crazy Answer","duration":29},{"id":5317,"name":"message bmw alert","duration":9},{"id":1341941,"name":"Vitthala Konta Zenda","duration":24},{"id":91292,"name":"\u00c3\u2122\u00e2\u20ac\u00a0\u00c3\u02dc\u00c2\u00b9\u00c3\u2122\u00c5\u00a0\u00c3\u02dc\u00c2\u00b4 \u00c3\u2122\u00e2\u20ac\u017e\u00c3\u2122\u00e2\u20ac\u00a6\u00c3\u02dc\u00c2\u00b5\u00c3\u02dc\u00c2\u00b1","duration":29},{"id":14662,"name":"Aqua toilet","duration":11},{"id":1240457,"name":"Sai Baba","duration":29},{"id":1302650,"name":"Docomo","duration":29},{"id":1178227,"name":"Surrender Remix","duration":20},{"id":1240176,"name":"Ring Ring Ringa","duration":20},{"id":1336059,"name":"Short Message","duration":5},{"id":14179,"name":"Ultimate Weapon","duration":18},{"id":1310759,"name":"Signum","duration":3},{"id":74547,"name":"Real Ringtones","duration":2},{"id":14010,"name":"love","duration":25},{"id":1292138,"name":"Mobil Butut","duration":18},{"id":68403,"name":"Be Cool 2011","duration":27},{"id":5294,"name":"Army alarm","duration":6},{"id":976696,"name":"Let M S Yr Love","duration":13},{"id":292289,"name":"Double Rainbow","duration":8},{"id":44891,"name":"Very loud sound effect","duration":19},{"id":58602,"name":"Wada CooL","duration":23},{"id":91298,"name":"\u00c3\u2122\u00c6\u2019\u00c3\u2122\u00e2\u20ac\u017e \u00c3\u02dc\u00c2\u00a7\u00c3\u2122\u00e2\u20ac\u017e\u00c3\u2122\u00e2\u20ac\u00a0\u00c3\u02dc\u00c2\u00a7\u00c3\u02dc\u00c2\u00b3 \u00c3\u02dc\u00c2\u00a8\u00c3\u2122\u00c5\u00a0\u00c3\u2122\u00e2\u20ac\u0161\u00c3\u2122\u00cb\u2020\u00c3\u2122\u00e2\u20ac\u017e\u00c3\u2122\u00cb\u2020\u00c3\u02dc\u00c2\u00a7 \u00c3\u2122\u00c5\u00a0\u00c3\u02dc\u00c2\u00a7\u00c3\u02dc\u00c2\u00b1\u00c3\u02dc\u00c2\u00a8","duration":26},{"id":957724,"name":"Ustad Hotelvathilil","duration":29},{"id":885798,"name":"Soft Guitar","duration":28},{"id":879713,"name":"Addicted 457kb Mp3","duration":28},{"id":71800,"name":"Hello Its your mobile","duration":30},{"id":74092,"name":"\u00c3\u02dc\u00c2\u00a8\u00c3\u02dc\u00c2\u00a7\u00c3\u02dc\u00c2\u00b3\u00c3\u2122\u00e2\u20ac\u00a6\u00c3\u2122\u00c6\u2019 \u00c3\u2122\u00e2\u20ac\u00a0\u00c3\u02dc\u00c2\u00ad\u00c3\u2122\u00c5\u00a0\u00c3\u02dc\u00c2\u00a7 \u00c3\u02dc\u00c2\u00b1\u00c3\u02dc\u00c2\u00a8\u00c3\u2122\u00e2\u20ac\u00a0\u00c3\u02dc\u00c2\u00a7","duration":30},{"id":44346,"name":"HORROR Wolf","duration":13},{"id":1178844,"name":"Tweet Tweet Sms","duration":3},{"id":180767,"name":"Airtel Trance Mp3","duration":28},{"id":154763,"name":"Crimewave","duration":29},{"id":1310742,"name":"Endless Flow","duration":23},{"id":240480,"name":"Yethukku Pondaati","duration":29},{"id":1119626,"name":"crni sine","duration":18},{"id":47658,"name":"Blackberry Boyz","duration":26},{"id":234398,"name":"Jugni Sms Tune","duration":9},{"id":910437,"name":"Rock It Prime Jive","duration":11},{"id":266131,"name":"Check Inbox By Mp","duration":8},{"id":15884,"name":"Om Namah Shivai1","duration":20},{"id":120343,"name":"Arab Music","duration":23},{"id":54101,"name":"Hey Baby","duration":28},{"id":1204532,"name":"Alert Sms","duration":7},{"id":333721,"name":"Alex Kunnari - Lifte","duration":21},{"id":48798,"name":"Borat","duration":2},{"id":778276,"name":"Mp3-elektro","duration":19},{"id":835554,"name":"Epiphanymp3","duration":1},{"id":178544,"name":"Soft Music Mp3","duration":28},{"id":57199,"name":"Dogs Ringtone funny","duration":22},{"id":245684,"name":"Sweet Flute","duration":21},{"id":103552,"name":"Kondio Priqteli","duration":29},{"id":12347,"name":"~Milk (I'm waiting 4 U)","duration":27},{"id":45772,"name":"Guitar 6","duration":18},{"id":296666,"name":"Clubraiders Ring","duration":22},{"id":183119,"name":"Country Ringtone","duration":7},{"id":27107,"name":"ExorcistTheme","duration":26},{"id":254406,"name":"Espionage Nokia","duration":27},{"id":63844,"name":"World mobile kili puppy Puiut","duration":17},{"id":58399,"name":"Guitar and  Violin","duration":27},{"id":385614,"name":"Terenaam","duration":29},{"id":1266840,"name":"Lionroarmp3","duration":6},{"id":173644,"name":"Heyah","duration":16},{"id":867148,"name":"Fast Drum","duration":28},{"id":7063,"name":"Best Thing I Never Had","duration":29},{"id":337606,"name":"Horror","duration":12},{"id":1219897,"name":"K V Valsad","duration":24},{"id":965782,"name":"Imagine","duration":20},{"id":48424,"name":"elahy","duration":30},{"id":1348602,"name":"Classic Ring","duration":6},{"id":1310695,"name":"Ethnic03","duration":2},{"id":956388,"name":"Fruitamin Fruitaman","duration":29},{"id":1315778,"name":"Nice Ring Tone","duration":27},{"id":96503,"name":"Ipl_2010","duration":28},{"id":880079,"name":"After Party Mp3","duration":15},{"id":1310747,"name":"Message 3","duration":7},{"id":1292891,"name":"Airtel Music","duration":20},{"id":1281711,"name":"Fbi - Police Sirens","duration":20},{"id":1203994,"name":"Chicken","duration":5},{"id":1165147,"name":"Mortal Reminder","duration":27},{"id":1254651,"name":"We Dont Dance","duration":29},{"id":1355738,"name":"9mm Gun Shoot","duration":7},{"id":185223,"name":"Torres","duration":29},{"id":337738,"name":"7zen","duration":29},{"id":95869,"name":"Wheel Salman Ad","duration":26},{"id":1240555,"name":"Neele Neele Ambar Pa","duration":26},{"id":1310368,"name":"Infinity","duration":29},{"id":1234229,"name":"Bepanah Pyar","duration":29},{"id":1199721,"name":"Scootermix","duration":28},{"id":1024878,"name":"HTC Butterfly 2013","duration":22},{"id":182912,"name":"Music121","duration":29},{"id":1241406,"name":"Teri Ore","duration":29},{"id":909500,"name":"Tracy Jacks 1","duration":7},{"id":1347374,"name":"Boing Boing Msg","duration":3},{"id":58799,"name":"Beautiful Morning","duration":29},{"id":74736,"name":"bass low","duration":30},{"id":1310706,"name":"Future02","duration":2},{"id":47294,"name":"Flute_Beat_Tone.mp3","duration":27},{"id":63967,"name":"life","duration":29},{"id":30516,"name":"phone drunk","duration":22},{"id":793042,"name":"Lafangey-theme","duration":28},{"id":133429,"name":"Super Ringtone","duration":29},{"id":315605,"name":"Zarazitelniysmex","duration":10},{"id":894391,"name":"Crowd Saying Yeah","duration":5},{"id":1241999,"name":"Aja Milke Mp3","duration":21},{"id":11754,"name":"hello","duration":30},{"id":70223,"name":"Revolutionary","duration":11},{"id":11620,"name":"nokia tune in rock","duration":14},{"id":1340627,"name":"Nokia Rmx Rythm","duration":23},{"id":208234,"name":"Amazing Guitar","duration":17},{"id":1312490,"name":"Kaise Mujhe Tum","duration":24},{"id":905772,"name":"Hc Vitkovice","duration":29},{"id":31043,"name":"I Want You To Answer My Call","duration":15},{"id":1345895,"name":"Romantic Rain","duration":29},{"id":1310974,"name":"Real Tone13","duration":1},{"id":240688,"name":"Chaska-honey Singh","duration":23},{"id":5652,"name":"text message","duration":3},{"id":1311744,"name":"Comedy Show","duration":6},{"id":94761,"name":"\u00c3\u02dc\u00c2\u00a7\u00c3\u02dc\u00c2\u00b0\u00c3\u02dc\u00c2\u00a7 \u00c3\u2122\u00c6\u2019\u00c3\u2122\u00e2\u20ac\u00a0\u00c3\u02dc\u00c2\u00aa \u00c3\u2122\u00c2\u0081\u00c3\u2122\u00e2\u20ac\u00b0 \u00c3\u2122\u00e2\u20ac\u00a0\u00c3\u02dc\u00c2\u00b9\u00c3\u2122\u00e2\u20ac\u00a6\u00c3\u02dc\u00c2\u00a9","duration":28},{"id":956471,"name":"I Just Wanna Hold","duration":29},{"id":253866,"name":"Kabira","duration":29},{"id":1213000,"name":"Gangster Baby","duration":28},{"id":6170,"name":"bee alert","duration":2},{"id":59860,"name":"Dangerous","duration":1},{"id":91184,"name":"\u00c3\u2122\u00e2\u20ac\u00a1\u00c3\u2122\u00cb\u2020 \u00c3\u02dc\u00c2\u00a7\u00c3\u2122\u00e2\u20ac\u017e\u00c3\u2122\u00e2\u20ac\u017e\u00c3\u2122\u00e2\u20ac\u00a1","duration":28},{"id":158131,"name":"New Nokia Ring Tone","duration":29},{"id":1263884,"name":"Oh La La","duration":25},{"id":285502,"name":"Punjabi Mp3","duration":23},{"id":88157,"name":"PoliceHorn","duration":4},{"id":157749,"name":"Anandam","duration":19},{"id":199766,"name":"Music124","duration":29},{"id":1196268,"name":"Wonderful Story","duration":28},{"id":125628,"name":"Kan Mali","duration":29},{"id":380268,"name":"Byakugan","duration":2},{"id":296599,"name":"Lets All Chant","duration":25},{"id":993486,"name":"Android","duration":9},{"id":44790,"name":"Telephone ringing","duration":2},{"id":955507,"name":"Ishaqzaade","duration":20},{"id":211815,"name":"Nokia Pakistan","duration":7},{"id":793544,"name":"Wheresmybitchesmp3","duration":13},{"id":832454,"name":"Dhoom4 Dj Mix 2012","duration":28},{"id":31932,"name":"nokia sms with dj beat(ringtone)","duration":27},{"id":868060,"name":"2011 Ring","duration":26},{"id":55355,"name":"Future 2012","duration":8},{"id":17064,"name":"Guitar_Cute_Sms.mp3","duration":7},{"id":8876,"name":"ringing phone (ringtone)","duration":28},{"id":50502,"name":"Hey Baby","duration":27},{"id":1311751,"name":"Atmosphere","duration":14},{"id":65568,"name":"Sweet Dreams 1","duration":22},{"id":45883,"name":"Slow violin","duration":29},{"id":1315600,"name":"Sweet Msg","duration":4},{"id":858576,"name":"Desi Boyz Title Song","duration":28},{"id":209097,"name":"Smoothlatin","duration":8},{"id":1008001,"name":"Trance11","duration":28},{"id":983042,"name":"Play New Sound","duration":26},{"id":852396,"name":"Romantic Tune","duration":22},{"id":895029,"name":"Rat Race","duration":29},{"id":835612,"name":"Ringtone6mp3","duration":6},{"id":21483,"name":"Cool ritm","duration":22}]}