{"queryTime":"59 Seconds","totalCount":28835,"pageNumber":1,"perPage":200,"pageCount":200,"data":[{"id":950462,"name":"Nice Music","duration":24},{"id":1143006,"name":"Muskan","duration":29},{"id":105575,"name":"Last Time","duration":29},{"id":1194480,"name":"La Noche","duration":29},{"id":371817,"name":"Myth Keygen Music","duration":24},{"id":807190,"name":"Cool Ring 2010","duration":9},{"id":1009624,"name":"Nh47","duration":13},{"id":1183723,"name":"Bones Sms","duration":9},{"id":1024151,"name":"Drop Bass","duration":7},{"id":27413,"name":"Tambourine","duration":26},{"id":115541,"name":"Relax Music2011","duration":27},{"id":777892,"name":"Trance Music","duration":4},{"id":1089455,"name":"Hey Creep","duration":28},{"id":159104,"name":"Cruise Control","duration":15},{"id":1340314,"name":"Muziq","duration":12},{"id":1243091,"name":"Lambhi Judai","duration":17},{"id":1130982,"name":"Speaking Spanish","duration":4},{"id":1188672,"name":"Exorcist","duration":19},{"id":254855,"name":"Cid Theme Music","duration":27},{"id":315524,"name":"Be Cool  Americano","duration":27},{"id":1026108,"name":"classic music Olga","duration":29},{"id":296684,"name":"Lonliness","duration":28},{"id":340169,"name":"Bitterswee - Kucing","duration":29},{"id":180857,"name":"Rainbow Drops","duration":27},{"id":861554,"name":"Dhoom 3 Off","duration":27},{"id":802029,"name":"Funny House Music","duration":24},{"id":1214362,"name":"Yuva","duration":29},{"id":1323394,"name":"Dj - Sms 2010","duration":1},{"id":1119568,"name":"Splatoon- shopping","duration":10},{"id":1090414,"name":"hardworkpaysoff","duration":29},{"id":38275,"name":"Ya_Rabba_Instrumental","duration":27},{"id":300333,"name":"Cj7","duration":29},{"id":1218967,"name":"Nokia Sony Mix","duration":16},{"id":371796,"name":"House Music","duration":29},{"id":803998,"name":"Ragnarok Music Sms","duration":10},{"id":1357893,"name":"Techno4ever","duration":29},{"id":911925,"name":"Santhali Mp3 Tones21","duration":8},{"id":794429,"name":"Mensaje","duration":3},{"id":1246382,"name":"2 Pints Of Lager","duration":29},{"id":136331,"name":"Exclusive Music","duration":28},{"id":833711,"name":"Xsssfsfsfffggfhrryry","duration":17},{"id":1263333,"name":"Shym","duration":20},{"id":1340750,"name":"New Violin","duration":29},{"id":210792,"name":"Asian Techno","duration":29},{"id":1039873,"name":"The Decay","duration":24},{"id":1169861,"name":"On Ne Vit Q Une Fois","duration":29},{"id":989799,"name":"O Re Piya Flute","duration":26},{"id":1281087,"name":"Carukule Ponnu","duration":8},{"id":930138,"name":"Mant2ty","duration":29},{"id":1189292,"name":"Classic","duration":20},{"id":831951,"name":"Punnami Ratri","duration":29},{"id":1167523,"name":"Turok 2 - Title","duration":30},{"id":1254929,"name":"Dj Tazz 01","duration":29},{"id":1166995,"name":"F-Zero -White Land 2","duration":29},{"id":1167096,"name":"Dr Mario - Gb","duration":30},{"id":1195879,"name":"Spiderpig","duration":29},{"id":1211355,"name":"Sangeeth","duration":29},{"id":224964,"name":"Vodafone Cool","duration":28},{"id":854788,"name":"Star Wars Bar Music","duration":28},{"id":1112132,"name":"Something Going On","duration":14},{"id":343105,"name":"Eeram Nice Music","duration":28},{"id":1054919,"name":"Deep house ringtone","duration":25},{"id":1039515,"name":"Karma","duration":18},{"id":1280045,"name":"Khanoom Khoshgele","duration":29},{"id":1135017,"name":"Lucky One","duration":29},{"id":65950,"name":"Dopest DJ is Vanessa","duration":30},{"id":1129306,"name":"Electro House Music","duration":29},{"id":1051012,"name":"Classic","duration":16},{"id":67374,"name":"Blue","duration":29},{"id":295734,"name":"Pa-pi-to","duration":29},{"id":159930,"name":"Randy Orton Music 3","duration":23},{"id":236329,"name":"Hurt - Cant","duration":29},{"id":1165625,"name":"cool sounds47","duration":30},{"id":791777,"name":"World Most Cuterubab","duration":27},{"id":15505,"name":"Romantic","duration":27},{"id":1040501,"name":"Pon Pon Pon MB","duration":29},{"id":808678,"name":"Chitti Dance Music","duration":19},{"id":203606,"name":"Cmon Ayo","duration":29},{"id":1167220,"name":"Super Bomberman-Titl","duration":22},{"id":1238835,"name":"Nokia Techno Remix","duration":23},{"id":316801,"name":"Airtel 8","duration":19},{"id":1281905,"name":"Elfen Lied - Lilium","duration":29},{"id":1086588,"name":"Awesome Rhythm Music","duration":29},{"id":1207781,"name":"Doliyah","duration":29},{"id":1159079,"name":"The Future","duration":29},{"id":244056,"name":"Higher Ground","duration":18},{"id":180196,"name":"Anjali Tune Duet","duration":29},{"id":1210804,"name":"Nobody Said 2","duration":28},{"id":818139,"name":"Titanic Diwali New","duration":18},{"id":229709,"name":"People","duration":30},{"id":244892,"name":"Don2","duration":28},{"id":211311,"name":"Arab Music","duration":10},{"id":836925,"name":"Nokia C5 New 2011","duration":3},{"id":1334848,"name":"New  Techno","duration":29},{"id":1122163,"name":"High horse","duration":24},{"id":1263332,"name":"House","duration":10},{"id":121304,"name":"Spider4","duration":29},{"id":989357,"name":"Sunshine","duration":29},{"id":993426,"name":"Dance","duration":26},{"id":1251055,"name":"Oke Oka","duration":22},{"id":907385,"name":"Mass Song1","duration":26},{"id":1261098,"name":"Remix Music","duration":16},{"id":302384,"name":"Desi Slava","duration":29},{"id":1302906,"name":"Free","duration":20},{"id":1129178,"name":"cool music","duration":29},{"id":245715,"name":"Ta3 Nensa","duration":25},{"id":160753,"name":"Veera","duration":15},{"id":106036,"name":"Hot Emos","duration":20},{"id":1290977,"name":"Craiigg","duration":29},{"id":1205155,"name":"Meadowland","duration":29},{"id":805247,"name":"Endhiran","duration":29},{"id":1016745,"name":"Instrumental","duration":28},{"id":1000657,"name":"Comon Sava","duration":16},{"id":1263582,"name":"Mashallah","duration":19},{"id":16017,"name":"walc wiede\u00c3\u2026\u00e2\u20ac\u017eski","duration":27},{"id":1048378,"name":"Life  Death Tribute","duration":29},{"id":1303427,"name":"Castle Music P2","duration":29},{"id":1135739,"name":"Baby Metal Chocolate","duration":29},{"id":367049,"name":"Bab Alhara","duration":28},{"id":207071,"name":"All That She Wants 2","duration":29},{"id":154661,"name":"Awesome Music","duration":25},{"id":1239875,"name":"Twinheart","duration":15},{"id":930216,"name":"Elimination Music","duration":26},{"id":893848,"name":"Up And Down","duration":7},{"id":1337392,"name":"Play Now","duration":29},{"id":929795,"name":"Keem O Sabe","duration":21},{"id":180655,"name":"Aa Maa Aa","duration":29},{"id":1320190,"name":"Sen Aglama","duration":29},{"id":120024,"name":"Instrumental","duration":20},{"id":991379,"name":"Extreme Music","duration":29},{"id":1033211,"name":"no longer","duration":23},{"id":1217722,"name":"Partybreak","duration":27},{"id":983725,"name":"Notes 0f Life","duration":21},{"id":1137513,"name":"Dj shoko Destination","duration":28},{"id":1290951,"name":"Best Music","duration":22},{"id":168484,"name":"Nice Sms Tune","duration":3},{"id":879882,"name":"Music Move Your Feet","duration":29},{"id":952550,"name":"3d Cool Tone","duration":9},{"id":935424,"name":"Yana-nikogda","duration":28},{"id":1118991,"name":"Nurpurmilk","duration":29},{"id":930770,"name":"Hot Music 2012","duration":15},{"id":1239441,"name":"Hot Stuff Mix","duration":27},{"id":1314785,"name":"Undertaker","duration":29},{"id":288009,"name":"Think About It","duration":2},{"id":225491,"name":"Beauiful Things","duration":27},{"id":1305891,"name":"Strato","duration":11},{"id":173916,"name":"Balada","duration":22},{"id":1011942,"name":"Shipwrecked","duration":28},{"id":799522,"name":"Step Up 2 Sms","duration":5},{"id":229671,"name":"Fast Rock","duration":29},{"id":177395,"name":"Dj Mns","duration":28},{"id":276822,"name":"Commander","duration":28},{"id":84442,"name":"Better Off Alone","duration":28},{"id":819,"name":"2 TIMES 2K11","duration":31},{"id":1229664,"name":"Amecaleen-a Demi","duration":29},{"id":1219564,"name":"Garraud","duration":15},{"id":897349,"name":"Love Is Beautiful","duration":29},{"id":1119345,"name":"Super Music Fast","duration":28},{"id":132984,"name":"Mouth Music","duration":10},{"id":1030985,"name":"SoulSister","duration":11},{"id":1198299,"name":"Hocico","duration":29},{"id":338146,"name":"Avage Ja Nahi","duration":18},{"id":1121886,"name":"Seventeen-Very Nice","duration":29},{"id":1040080,"name":"Romantic guitar","duration":25},{"id":280730,"name":"Yugto","duration":29},{"id":913029,"name":"Santhali Ringtone137","duration":29},{"id":1353462,"name":"Beautiful Day","duration":5},{"id":940320,"name":"Bharat Mata Music","duration":13},{"id":1190440,"name":"Pick Up The Phone","duration":24},{"id":1170276,"name":"OCNY METAL","duration":30},{"id":1214013,"name":"Despardo","duration":29},{"id":895193,"name":"Sami Yousef","duration":29},{"id":35808,"name":"Paint my Love","duration":24},{"id":356224,"name":"Airwolf Theme Tune","duration":29},{"id":1173031,"name":"Sms Tone","duration":16},{"id":167866,"name":"Music Of Life","duration":27},{"id":274832,"name":"Badaga","duration":22},{"id":37426,"name":"Cotton eyed Joe v2","duration":27},{"id":1186325,"name":"Yaad Sataye Teri","duration":27},{"id":1193718,"name":"Sundanese Flute","duration":16},{"id":1124474,"name":"Dean - Bonnie Clyde","duration":20},{"id":966033,"name":"Tnt","duration":28},{"id":1182560,"name":"Inima Mea","duration":28},{"id":1010131,"name":"Save Me 2","duration":27},{"id":806298,"name":"Telugu Ringtone5","duration":23},{"id":356902,"name":"Super Mario","duration":28},{"id":101819,"name":"Soch-roadies","duration":29},{"id":1041145,"name":"DSP Music-2","duration":19},{"id":1229015,"name":"Firecracker Anthem","duration":28},{"id":888588,"name":"Ss Dub","duration":29},{"id":1128376,"name":"Faydee Sun dont","duration":18},{"id":1116155,"name":"Roadie","duration":7},{"id":1092167,"name":"Concert","duration":6},{"id":930125,"name":"Meya Meya","duration":24},{"id":1344394,"name":"Classic Guitar","duration":26},{"id":1325444,"name":"Ansoo Voilin","duration":22},{"id":55148,"name":"Music Build Dance","duration":30},{"id":1203925,"name":"Day Light Sky 2008","duration":29},{"id":885296,"name":"Fell In Love","duration":19},{"id":1318691,"name":"Technoz","duration":29}]}