{"queryTime":"1 Seconds","totalCount":437,"pageNumber":1,"perPage":200,"pageCount":200,"data":[{"id":232821,"name":"Business Ringtone 3","duration":4},{"id":886764,"name":"Nortel Page","duration":1},{"id":117126,"name":"Case Of The Mondays","duration":4},{"id":118026,"name":"Wuphf","duration":1},{"id":1331919,"name":"Office Phone","duration":2},{"id":10613,"name":"Nokia Best Office Ringtone","duration":7},{"id":311005,"name":"Blackberry Office","duration":1},{"id":1308243,"name":"Thats What She Said","duration":26},{"id":1154462,"name":"Baby midi","duration":30},{"id":355887,"name":"Stapler","duration":1},{"id":839326,"name":"Office Phone 2011","duration":1},{"id":314709,"name":"Office Ringtone","duration":3},{"id":380947,"name":"Nokia-office-disguis","duration":14},{"id":1055351,"name":"Office phone 7","duration":29},{"id":1007137,"name":"Office Ring H T C 1","duration":24},{"id":779544,"name":"Official Sms","duration":3},{"id":379967,"name":"The Office","duration":23},{"id":1226891,"name":"Magic Sound","duration":29},{"id":328516,"name":"Normal Ring","duration":3},{"id":205354,"name":"Business Ring 2011","duration":9},{"id":1335334,"name":"No God Noooooooooooo","duration":9},{"id":327985,"name":"Tiny Business","duration":9},{"id":995554,"name":"No1-cell-phone-2013","duration":29},{"id":934549,"name":"Office Calling","duration":6},{"id":1047579,"name":"Metal Riff5 Office","duration":9},{"id":333224,"name":"Office Tone","duration":28},{"id":790697,"name":"Nortel Meridian 1","duration":5},{"id":940006,"name":"The Office Nooo","duration":9},{"id":952734,"name":"Yessh","duration":1},{"id":1035874,"name":"Its the Office Call","duration":12},{"id":1040644,"name":"Different old phone","duration":28},{"id":1042224,"name":"bberry Emphatic","duration":1},{"id":931947,"name":"Gummy Txt 15","duration":11},{"id":176003,"name":"The Office Theme","duration":15},{"id":330288,"name":"Best Business Tone","duration":16},{"id":1004449,"name":"Modern Business Ring","duration":27},{"id":1047580,"name":"Metal Riff6 Office","duration":3},{"id":34296,"name":"Thats What She Said","duration":3},{"id":63997,"name":"Nokia Best Office Ringtone","duration":7},{"id":946154,"name":"Office","duration":9},{"id":997003,"name":"Office Phone Ring","duration":17},{"id":1125708,"name":"Home phone 4","duration":27},{"id":1037890,"name":"Office Ring 2","duration":16},{"id":789813,"name":"Bizz 4","duration":4},{"id":1128861,"name":"Crazy Office","duration":16},{"id":863586,"name":"The Office Theme","duration":29},{"id":1351620,"name":"Nortel Vista Ring 2","duration":3},{"id":1103054,"name":"Meet the Bobs","duration":29},{"id":956107,"name":"Michael Scotts Ring","duration":22},{"id":876135,"name":"Office Phone Tone","duration":28},{"id":964505,"name":"Snake","duration":4},{"id":931941,"name":"Gummy Time","duration":29},{"id":1089289,"name":"michael office","duration":1},{"id":987763,"name":"Office Phone","duration":29},{"id":1009974,"name":"Cell Phone 2013 L G","duration":16},{"id":1047581,"name":"Metal Riff7 Office","duration":4},{"id":142770,"name":"Rat","duration":1},{"id":1087251,"name":"Office Secrets 1","duration":27},{"id":1317971,"name":"Nortel Vista Ring 1","duration":4},{"id":1125707,"name":"Home phone 3","duration":27},{"id":1261689,"name":"Business Call","duration":4},{"id":990779,"name":"Office Phone","duration":11},{"id":1033688,"name":"Office phone 3","duration":29},{"id":931241,"name":"Theofficemichaelscot","duration":4},{"id":1329723,"name":"Stuff In Jello Again","duration":2},{"id":380067,"name":"The Office Ringtone","duration":29},{"id":913923,"name":"Bussiness Ring","duration":9},{"id":388016,"name":"Britney","duration":19},{"id":1191678,"name":"2 Business Sms Tone","duration":3},{"id":1356337,"name":"Office Phn","duration":28},{"id":328571,"name":"Phone Ring Echo","duration":8},{"id":1324386,"name":"Office","duration":29},{"id":262350,"name":"Office Phone","duration":16},{"id":1135602,"name":"Cisco Office Phone","duration":1},{"id":1189007,"name":"Pc Load Letter","duration":2},{"id":812576,"name":"Office Phone Tone","duration":28},{"id":1035447,"name":"3D Office Sound","duration":17},{"id":1001214,"name":"3d Office Ringtone 7","duration":13},{"id":965250,"name":"Office Work","duration":28},{"id":1010492,"name":"Nokia Classic--2013","duration":19},{"id":1323885,"name":"That One Night-offic","duration":25},{"id":1347380,"name":"The Office Real","duration":20},{"id":329727,"name":"Bizz 5","duration":7},{"id":1157956,"name":"STAYIN ALIVE","duration":28},{"id":1014075,"name":"Best Office Ring","duration":28},{"id":1252450,"name":"The Office","duration":29},{"id":952742,"name":"Rudadadooo","duration":1},{"id":1355409,"name":"Office Ring","duration":5},{"id":1004467,"name":"Cell Phonebest 2013","duration":19},{"id":1039171,"name":"Busi Cell-Galaxy S5","duration":29},{"id":931949,"name":"Gummy Txt 23","duration":9},{"id":1039172,"name":"No1 Cell Sound Nokia","duration":28},{"id":1042218,"name":"Bberry pro Brevis","duration":1},{"id":367970,"name":"Dm Dwight Shrute","duration":5},{"id":1172767,"name":"Nina Speaking","duration":5},{"id":1195431,"name":"The Office Theme","duration":16},{"id":1054280,"name":"Business Ring 02","duration":21},{"id":1190616,"name":"Office Phone","duration":2},{"id":1047578,"name":"Metal Riff4 Office","duration":5},{"id":862325,"name":"Dwight Cd Intro","duration":14},{"id":963068,"name":"Amazing Office Ring","duration":20},{"id":197903,"name":"Office Tone","duration":2},{"id":265357,"name":"Office","duration":29},{"id":1139621,"name":"Different old phone6","duration":28},{"id":935805,"name":"Office Ambiance 1","duration":29},{"id":1010202,"name":"3d Office Ring H T C","duration":20},{"id":1120561,"name":"office phone","duration":3},{"id":1343505,"name":"The Office","duration":28},{"id":388017,"name":"Britney","duration":30},{"id":378279,"name":"The Office","duration":21},{"id":1033412,"name":"Office phone 2","duration":29},{"id":1101849,"name":"Michael Scarn","duration":1},{"id":1098733,"name":"Michael Scott Tables","duration":5},{"id":1125710,"name":"Echophone","duration":26},{"id":945106,"name":"Office Phone","duration":28},{"id":161909,"name":"Doctors Office","duration":29},{"id":952746,"name":"Office Theme","duration":29},{"id":1031780,"name":"office ringtone","duration":1},{"id":264777,"name":"Absolutely I Do","duration":1},{"id":892445,"name":"The Office Theme","duration":29},{"id":1125130,"name":"Nextel","duration":6},{"id":10381,"name":"Best Cell Phone Ring 2011","duration":29},{"id":1001760,"name":"Business Cell Phone","duration":9},{"id":794896,"name":"Business Ring 10","duration":29},{"id":1294416,"name":"Ogodno","duration":7},{"id":384724,"name":"Office Phone","duration":29},{"id":1295473,"name":"Thats What She Said","duration":1},{"id":1002528,"name":"No1 Old Office Tone","duration":14},{"id":779425,"name":"Storming The Office","duration":28},{"id":1135650,"name":"work 1beep ring","duration":4},{"id":1222030,"name":"Theoffice","duration":10},{"id":1002527,"name":"Business Retro Ring","duration":22},{"id":1276566,"name":"The Office Sms","duration":2},{"id":1155213,"name":"I Am Dead Inside","duration":2},{"id":779383,"name":"Office New Tone","duration":27},{"id":1042227,"name":"bberry ringer 9","duration":1},{"id":997770,"name":"3d Classic Ring 2013","duration":13},{"id":1054279,"name":"Business Ring 01","duration":10},{"id":206115,"name":"Monoik 2","duration":2},{"id":103351,"name":"Aam Aadmi","duration":9},{"id":926405,"name":"Timburrr","duration":1},{"id":119356,"name":"Echo Long","duration":5},{"id":999407,"name":"Office Ring 2013","duration":7},{"id":1003332,"name":"Modern Office Ring X","duration":23},{"id":1002333,"name":"No1 Business Ring -x","duration":6},{"id":776026,"name":"Nortel Vista Ring 3","duration":3},{"id":829168,"name":"Busy Office","duration":29},{"id":1243859,"name":"Business Ringtone 1","duration":6},{"id":1253580,"name":"The Office Theme Son","duration":29},{"id":922667,"name":"The Office Tvshort","duration":20},{"id":1017905,"name":"Office Tone","duration":4},{"id":794272,"name":"Office Fone","duration":3},{"id":312659,"name":"Office Sms","duration":3},{"id":979642,"name":"Office Phone Ring","duration":28},{"id":931945,"name":"Gummy Txt 10","duration":10},{"id":1313819,"name":"Rataa","duration":1},{"id":1035079,"name":"Ringtonix","duration":15},{"id":931939,"name":"Synth 3","duration":28},{"id":1005623,"name":"Super S M S 2013 Htc","duration":7},{"id":1302028,"name":"Theme Song","duration":29},{"id":377042,"name":"Business Sms Tone4","duration":2},{"id":1000566,"name":"Office Sms Sound","duration":11},{"id":794008,"name":"Office Phone","duration":1},{"id":794204,"name":"Office Phone","duration":2},{"id":368333,"name":"I Have People Skills","duration":19},{"id":10375,"name":"Classic Phone Ring","duration":10},{"id":330127,"name":"Chimes","duration":2},{"id":1139313,"name":"Different old phone4","duration":29},{"id":894543,"name":"Office Phone","duration":28},{"id":998804,"name":"Sms Best Android","duration":10},{"id":885886,"name":"Office Phone","duration":28},{"id":998785,"name":"3d Cool Cell Sound","duration":17},{"id":930265,"name":"Office Trin Trin","duration":28},{"id":1036618,"name":"Classic SMS Sound","duration":6},{"id":1296250,"name":"No God Noooo","duration":25},{"id":1042217,"name":"Bberry pro advance","duration":1},{"id":1004518,"name":"Business Tone","duration":4},{"id":1125876,"name":"Echophone 3","duration":26},{"id":823528,"name":"Office Phone","duration":3},{"id":299668,"name":"Nokia Office Tone","duration":3},{"id":303232,"name":"Dantes Office Battle","duration":28},{"id":1047574,"name":"Metal Riff1 Office","duration":5},{"id":63896,"name":"Best Cell Phone Ring 2011","duration":29},{"id":242178,"name":"Office","duration":28},{"id":910258,"name":"Telephone","duration":1},{"id":1002326,"name":"3d Office Ring 2013","duration":26},{"id":1012114,"name":"Vijay Tv Office New","duration":6},{"id":935807,"name":"Office Ambiance 2","duration":29},{"id":312643,"name":"Office Wake Up Sms","duration":12},{"id":931943,"name":"Gummy Txt 1","duration":10},{"id":1125878,"name":"Low-tech phone","duration":29},{"id":104240,"name":"Office Theme","duration":29},{"id":5183,"name":"Office Phone","duration":29},{"id":1349493,"name":"Megadesk","duration":1},{"id":1001212,"name":"Simple Cell Phone","duration":14},{"id":384138,"name":"Office Phone","duration":29},{"id":872725,"name":"Decent Office Ringto","duration":16},{"id":92798,"name":"The Office Song","duration":16},{"id":789812,"name":"Bizz 3","duration":9},{"id":299421,"name":"Office","duration":8}]}