{"queryTime":"7 Seconds","totalCount":266,"pageNumber":1,"perPage":200,"pageCount":200,"data":[{"id":174359,"name":"Janji Kita","duration":28},{"id":1219588,"name":"Aku Kau Dan Dia","duration":29},{"id":887167,"name":"Doraemon Malay Tone","duration":29},{"id":233838,"name":"High Sshool Rocker","duration":29},{"id":780089,"name":"Dj7 Singam Malay","duration":13},{"id":231901,"name":"Musnah Ending","duration":29},{"id":1200624,"name":"Izinkan Ku Pergi","duration":29},{"id":234528,"name":"Isi Atau Kulit","duration":19},{"id":215715,"name":"Jemu","duration":29},{"id":224019,"name":"Guris","duration":29},{"id":244389,"name":"Itulah Sayang Chorus","duration":27},{"id":332633,"name":"Bukan Di Sini","duration":23},{"id":239466,"name":"Titian Hasrat","duration":26},{"id":1096065,"name":"kembalikan semula","duration":29},{"id":221954,"name":"Hanya Keranamu","duration":29},{"id":1123473,"name":"Kabali Malay Real","duration":12},{"id":76302,"name":"bunga angkasa v1","duration":24},{"id":1185957,"name":"Bukan Di Sini V2","duration":25},{"id":46990,"name":"Keroncong Musical","duration":28},{"id":1214236,"name":"Tercipta Untukku","duration":27},{"id":1358607,"name":"Kaghey","duration":28},{"id":1254364,"name":"Kau Yg Bernama Seri","duration":28},{"id":338043,"name":"Hanya Kau Yg Mampu","duration":29},{"id":272648,"name":"Kerana Cintamu","duration":29},{"id":234515,"name":"Itu Kamu","duration":29},{"id":1319728,"name":"Takdir Dan Waktu","duration":19},{"id":1288238,"name":"Paying Guest May Lay","duration":29},{"id":69195,"name":"Fantasia Bulan Madu","duration":28},{"id":1175681,"name":"Hai Obat","duration":29},{"id":1173593,"name":"Dikir Barat","duration":29},{"id":1155232,"name":"Ku Hanya Sayang","duration":30},{"id":1096061,"name":"my crush tag","duration":29},{"id":174910,"name":"Alamak Ade Mesej","duration":3},{"id":1220105,"name":"Benar-benar-rifa Eji","duration":29},{"id":332700,"name":"Pulau Pinang Kita","duration":28},{"id":230596,"name":"3 Mlm Tanpa Bintang","duration":29},{"id":1204416,"name":"Ceritera Cinta","duration":29},{"id":225364,"name":"Misscall","duration":26},{"id":120772,"name":"Raja Gelek","duration":29},{"id":1148022,"name":"Suamiku PSweet","duration":29},{"id":234731,"name":"Terjemahan Cinta","duration":23},{"id":1303990,"name":"Bukan Superman","duration":28},{"id":236988,"name":"Memori Cinta Semalam","duration":29},{"id":1303988,"name":"Yuni-sepi","duration":29},{"id":1288444,"name":"Teri Meri Dosti Ka A","duration":29},{"id":233003,"name":"Ke Pintu Kasihmu","duration":29},{"id":233826,"name":"Metalasia Silantra","duration":28},{"id":234444,"name":"Tak Suka Tak Apa","duration":28},{"id":315404,"name":"Kau Dan Aku","duration":29},{"id":239656,"name":"Di Alam Fana Cinta","duration":29},{"id":290563,"name":"Shinchan Malay","duration":4},{"id":1185939,"name":"Kalis Rindu","duration":25},{"id":226600,"name":"Ranjangmawar","duration":29},{"id":1175443,"name":"Perli Mawi","duration":29},{"id":237346,"name":"Di Antara Gadis Intr","duration":29},{"id":1175447,"name":"Taman Bola Utama","duration":29},{"id":333986,"name":"Aku Lebih Tahu V2","duration":29},{"id":1271386,"name":"Satu","duration":29},{"id":947426,"name":"Untuk Dia","duration":11},{"id":323495,"name":"Kru-untukmu","duration":20},{"id":1040674,"name":"gotta be my girl","duration":29},{"id":867415,"name":"Counter Strike Malay","duration":3},{"id":231633,"name":"Kamus Asmara","duration":23},{"id":135464,"name":"Retro Romeo","duration":28},{"id":177463,"name":"Mengintai Tirai Kamr","duration":27},{"id":347135,"name":"Belacan","duration":29},{"id":236894,"name":"Namamu Kini Jd Sbutn","duration":29},{"id":1123472,"name":"Kabali Malay","duration":12},{"id":1201142,"name":"Chakra Remix","duration":29},{"id":347141,"name":"Pak Mat Tempeh","duration":29},{"id":1096060,"name":"ost tollgate asmara","duration":29},{"id":1186350,"name":"Alhamdulillah - Opic","duration":24},{"id":1172945,"name":"Ingat Pada Allah","duration":29},{"id":1199927,"name":"Aku Tak Biasa","duration":29},{"id":1249050,"name":"3d Animation Malay","duration":12},{"id":1192355,"name":"Mari Makan Budu","duration":3},{"id":1288235,"name":"Khudaya Ve May Lay","duration":29},{"id":204566,"name":"Yea Dapat Sms","duration":6},{"id":232481,"name":"Stelh Drmu Ku Kenali","duration":29},{"id":1145671,"name":"D Bagindas Cintaa","duration":27},{"id":337379,"name":"Taman Astakona","duration":27},{"id":1216608,"name":"Hikmah Ost","duration":29},{"id":166287,"name":"Sua Sue Kemoning","duration":19},{"id":1220979,"name":"Suki- Siapa Aku","duration":26},{"id":1158370,"name":"DJ sr sakitnya","duration":30},{"id":1158334,"name":"Ahmad Albab","duration":5},{"id":1208373,"name":"Menjaga Hati","duration":29},{"id":161104,"name":"Wanderpet Malay","duration":11},{"id":215586,"name":"Ulek Mayang Remix","duration":29},{"id":78625,"name":"Ibu","duration":26},{"id":1318492,"name":"Cerita Kedai Dopi","duration":29},{"id":273996,"name":"Nikki- Relakan","duration":26},{"id":852444,"name":"Apo Kono Eh Jang","duration":26},{"id":1217362,"name":"Terima Kasih Cinta","duration":23},{"id":1241646,"name":"Dan Sebenarnya","duration":29},{"id":273626,"name":"Tak Bisa Memiliki","duration":29},{"id":240212,"name":"Zakiah","duration":21},{"id":1288318,"name":"Teri Meri Yeh Zindag","duration":29},{"id":238275,"name":"Nubhan","duration":29},{"id":298232,"name":"Trace","duration":13},{"id":337366,"name":"Airmata Cinta","duration":29},{"id":273982,"name":"Sayang","duration":26},{"id":1147714,"name":"Let Me Lv U-Acoustic","duration":12},{"id":382192,"name":"Wanita","duration":28},{"id":1288228,"name":"Isaaq Vishaq","duration":29},{"id":273732,"name":"Teman Sejati","duration":28},{"id":334045,"name":"Yang Pernah","duration":23},{"id":337370,"name":"Ku Spu Air Mt Ppshan","duration":28},{"id":1215767,"name":"Situasi - Bunkface","duration":29},{"id":376606,"name":"Upin Ipin","duration":8},{"id":1254967,"name":"Angan-angan","duration":27},{"id":924013,"name":"Teganya Dirimu","duration":30},{"id":1096056,"name":"Terlalu Rindu","duration":29},{"id":208749,"name":"Kalau Berpacaran","duration":29},{"id":1271844,"name":"Ceplos","duration":29},{"id":13664,"name":"OST noktah erna V3","duration":28},{"id":237451,"name":"Spring-butakah Cinta","duration":29},{"id":19219,"name":"Fantasia Bulan Madu","duration":29},{"id":222115,"name":"Pemaisuri","duration":28},{"id":215538,"name":"Sekuntum Mawar Merah","duration":29},{"id":235685,"name":"Malay Thrash Rock","duration":29},{"id":177517,"name":"Jangan Bilang Tidak","duration":29},{"id":1220102,"name":"Benar-benar-rifa Eji","duration":29},{"id":1288178,"name":"Mann Ka Radio  Malay","duration":29},{"id":1359671,"name":"Yang Terindah Dakmie","duration":29},{"id":887166,"name":"Shin Chan Malay","duration":29},{"id":1175680,"name":"Di Tepi Kapal","duration":29},{"id":239304,"name":"Pawana","duration":23},{"id":232579,"name":"Di Antara Gadis","duration":29},{"id":241134,"name":"Menara-syg","duration":29},{"id":288631,"name":"Aku Tak Biasa","duration":29},{"id":338238,"name":"Bunkface - Situasi","duration":27},{"id":1174162,"name":"Tiada Lagi","duration":29},{"id":948066,"name":"Semua Untukmu","duration":14},{"id":1234845,"name":"Alif-akan Tiba","duration":29},{"id":1175686,"name":"Andai Kau Mandi Dulu","duration":29},{"id":249315,"name":"Belaian Jiwa","duration":28},{"id":1277731,"name":"Nur Kasih Tv 3","duration":29},{"id":266847,"name":"Kung Fu Hustle","duration":29},{"id":225296,"name":"Samurai-dipintu Sepi","duration":29},{"id":1192624,"name":"Di Hari Persandingan","duration":29},{"id":1102028,"name":"nona nona nona","duration":29},{"id":1096064,"name":"andai hatiku brsuara","duration":29},{"id":234364,"name":"Mengulit Kenangan","duration":29},{"id":241027,"name":"Tiara","duration":29},{"id":37272,"name":"HANYA KAW YANG MAMPU","duration":28},{"id":234693,"name":"Kau Salju Cinta Ku","duration":29},{"id":103835,"name":"Selagi Ada Rindu","duration":29},{"id":247607,"name":"Hampa Hatiku By Ungu","duration":29},{"id":221915,"name":"Sinambungan Cinta","duration":29},{"id":333964,"name":"Warkah","duration":28},{"id":1233886,"name":"Seribu Tahun","duration":27},{"id":1288175,"name":"Love Me- Malay Patel","duration":29},{"id":338118,"name":"Sahabat Aizat","duration":29},{"id":236763,"name":"Spring-ktdjc","duration":29},{"id":235270,"name":"Nature-lafaz Cinta","duration":29},{"id":1344524,"name":"Si-jantung-hati","duration":25},{"id":1213238,"name":"Teh Tarik","duration":11},{"id":291390,"name":"Operator Mengamuk","duration":22},{"id":1171625,"name":"If I could go back","duration":28},{"id":230834,"name":"Sejati","duration":29},{"id":1266118,"name":"Skntum Bunga D Gurun","duration":29},{"id":76445,"name":"dari kekasih kpd kekasih","duration":23},{"id":865358,"name":"Lite It Up","duration":26},{"id":1174155,"name":"Sephia","duration":29},{"id":234573,"name":"Suci","duration":29},{"id":1354876,"name":"Hiasan","duration":26},{"id":239339,"name":"Bila Hati Dah Syg 2","duration":28},{"id":1266357,"name":"Im Yours Malay","duration":28},{"id":978941,"name":"Tentang Rasa","duration":20},{"id":194765,"name":"Bunga","duration":29},{"id":865376,"name":"Dirinya","duration":19},{"id":1343921,"name":"O Mere Khuda","duration":25},{"id":1185936,"name":"Bukti","duration":29},{"id":1288185,"name":"Twist - May Lay","duration":29},{"id":1054058,"name":"Maafkan Aku Asfan","duration":29},{"id":1303985,"name":"Mila-ilhamku","duration":22},{"id":272554,"name":"Alyah","duration":29},{"id":382927,"name":"Lamunan Terhenti","duration":27},{"id":158801,"name":"Sayang","duration":29},{"id":296240,"name":"Malay Song Remixs","duration":29},{"id":222142,"name":"Bla Bunga Dpetik Org","duration":29},{"id":1240395,"name":"Camni-lah","duration":21},{"id":273722,"name":"Aizat - Fikirlah","duration":29},{"id":355750,"name":"Keluang Man","duration":29},{"id":231966,"name":"Luka Seribu Rindu","duration":29},{"id":1288180,"name":"Patli Gali - Malay P","duration":29},{"id":1200626,"name":"Kaer-menjelma","duration":29},{"id":240444,"name":"Silly Lily","duration":29},{"id":1237141,"name":"Dansaberzaman","duration":20},{"id":276908,"name":"Fantasia Los Angeles","duration":22},{"id":323335,"name":"Aizat- Lagu Kita","duration":29},{"id":1214078,"name":"Cincin Emas","duration":13},{"id":237434,"name":"Lela-smpai Bila","duration":29},{"id":234351,"name":"Luka Seribu Rindu","duration":29},{"id":222903,"name":"Jejaka Idaman","duration":29},{"id":1175684,"name":"Ketatlah Pulak","duration":29},{"id":222931,"name":"Di Badai Asmara","duration":29},{"id":1185934,"name":"Itu Kamu","duration":24},{"id":334063,"name":"Kembali Senyum","duration":19}]}