{"queryTime":"5 Seconds","totalCount":7464,"pageNumber":1,"perPage":200,"pageCount":200,"data":[{"id":986975,"name":"Siii Warning","duration":1},{"id":1158905,"name":"Master Sword","duration":30},{"id":132443,"name":"Dexter Tonights","duration":2},{"id":1155407,"name":"Hip Hop Police","duration":19},{"id":1163483,"name":"TUTUT BAECOK","duration":7},{"id":1147227,"name":"Alert Drop","duration":2},{"id":1165619,"name":"cool sounds42","duration":30},{"id":1160618,"name":"EL FANTASMA 2017","duration":12},{"id":1162566,"name":"Sad Marrocain","duration":30},{"id":1158605,"name":"j balvin si tu","duration":5},{"id":1159024,"name":"Mario Bros2","duration":22},{"id":1165229,"name":"best arabic tone HK","duration":16},{"id":1150459,"name":"HeavyR - Last Breath","duration":29},{"id":841667,"name":"Gtalk Chat","duration":2},{"id":1147850,"name":"Secret Solved","duration":8},{"id":1165089,"name":"Super Sako-Mi Gna","duration":29},{"id":1152762,"name":"Low 2 NOKIA","duration":2},{"id":994013,"name":"Htc Sms","duration":2},{"id":1089032,"name":"Tech Sweep","duration":2},{"id":1156152,"name":"Goron Champion Daruk","duration":12},{"id":1163128,"name":"Sea People","duration":3},{"id":1023340,"name":"iihaa 8bit Phone","duration":3},{"id":1163888,"name":"Bevy Maco So faded","duration":4},{"id":1161075,"name":"Desk Bell BLU","duration":1},{"id":1164031,"name":"titanic flute cool","duration":20},{"id":1149078,"name":"galaxy s7 startup","duration":4},{"id":1138519,"name":"important-stuff","duration":29},{"id":1157714,"name":"zabatko","duration":30},{"id":998322,"name":"Nokia Fb Messenger","duration":8},{"id":1169814,"name":"Salacia","duration":1},{"id":1152968,"name":"dbs sms","duration":1},{"id":1164018,"name":"Cool iphone ringtone","duration":14},{"id":1165745,"name":"arabic music10","duration":19},{"id":1160690,"name":"MpirgkelBackInYour","duration":30},{"id":1163716,"name":"Lets go Mets","duration":13},{"id":1092319,"name":"Email Notification","duration":1},{"id":1162361,"name":"Arin Eyeaaaah x3","duration":3},{"id":1155024,"name":"mort de poulet2","duration":17},{"id":1148696,"name":"Gribi - taet led","duration":30},{"id":1007873,"name":"Best Dance Ringtone","duration":24},{"id":986982,"name":"Bells","duration":1},{"id":1163426,"name":"THE HELP OF KYOJI","duration":2},{"id":1155982,"name":"Pokemon Item","duration":21},{"id":1088377,"name":"Piggy Oink","duration":2},{"id":1148638,"name":"Hey Mamma 2","duration":19},{"id":1152676,"name":"Xiaomi Ringtone","duration":18},{"id":1147992,"name":"BTS","duration":30},{"id":1160930,"name":"Cool Vibrations","duration":2},{"id":1148667,"name":"Irina Rimes -Visele3","duration":30},{"id":1155314,"name":"DBHeroes God mission","duration":30},{"id":1156478,"name":"I just called to say","duration":29},{"id":1150025,"name":"Eternal 1","duration":5},{"id":1014091,"name":"Bmw Startup Notif","duration":2},{"id":1171716,"name":"Tweeter","duration":1},{"id":1147910,"name":"Zen theme","duration":29},{"id":1160983,"name":"Un pezzo One Piece","duration":1},{"id":1156999,"name":"CSD Notification 22","duration":3},{"id":1156883,"name":"CSD Notification 10","duration":3},{"id":1161833,"name":"knock","duration":5},{"id":995025,"name":"Warp Sound","duration":3},{"id":1156766,"name":"Muteki Invincibility","duration":13},{"id":1151498,"name":"Madona Hung up","duration":30},{"id":1152958,"name":"PulsefireMysticShot","duration":1},{"id":1159877,"name":"Like that","duration":30},{"id":98280,"name":"Relapse Collapse","duration":5},{"id":1156680,"name":"Allview-Mutter","duration":2},{"id":1160861,"name":"Spawn","duration":2},{"id":1147756,"name":"portero 2","duration":1},{"id":1164825,"name":"Cuida Bem De Mim","duration":24},{"id":1151249,"name":"MestecanisRingtonev2","duration":27},{"id":1161528,"name":"Pac-Man Intermission","duration":5},{"id":1040019,"name":"Minight Sun","duration":18},{"id":1159625,"name":"OO Ee","duration":2},{"id":1154606,"name":"boss music","duration":25},{"id":1161811,"name":"Your Sword","duration":4},{"id":1040071,"name":"Viber Message","duration":1},{"id":1044754,"name":"notification","duration":1},{"id":1043571,"name":"notification26","duration":1},{"id":1153090,"name":"Moring ringtone","duration":22},{"id":1163028,"name":"game of thorones","duration":1},{"id":1035338,"name":"Mario Level Complite","duration":2},{"id":1023330,"name":"iihaa 8bit","duration":4},{"id":1023347,"name":"Procyon","duration":2},{"id":1162569,"name":"Mont Beats","duration":16},{"id":1141544,"name":"xpAlto Battery Low","duration":2},{"id":1159057,"name":"Smalltown Boy","duration":30},{"id":1115671,"name":"Harry Potter Theme","duration":4},{"id":1166025,"name":"Psycho Pass Chime","duration":1},{"id":1292649,"name":"Text Message","duration":2},{"id":842680,"name":"Suddenly","duration":2},{"id":1157315,"name":"pokemon GO level up","duration":3},{"id":1162937,"name":"cantina 8 bit","duration":4},{"id":1150059,"name":"Level Up Charisma","duration":1},{"id":1153034,"name":"Anton LaVey","duration":30},{"id":1161355,"name":"ROBIN SCHULZ OK","duration":15},{"id":1157840,"name":"Peezy Im good Pt3","duration":30},{"id":1156814,"name":"Stay with me","duration":9},{"id":1155877,"name":"kbobs","duration":13},{"id":1153834,"name":"Kill","duration":23},{"id":279650,"name":"Forgot","duration":2},{"id":1157262,"name":"All of me","duration":29},{"id":1158585,"name":"what the mulder says","duration":3},{"id":1156811,"name":"Heres a quarter","duration":5},{"id":1152308,"name":"SC2 Orz","duration":4},{"id":1151677,"name":"Rain Dance","duration":28},{"id":1043525,"name":"notification2","duration":2},{"id":162407,"name":"Aliens Hicks Orders","duration":2},{"id":1165630,"name":"cool sounds","duration":14},{"id":1155684,"name":"Iphone 7 beats","duration":11},{"id":1170056,"name":"OCNY METAL","duration":30},{"id":994468,"name":"Htc Cliff","duration":2},{"id":1161044,"name":"ezreal - pick","duration":2},{"id":1152216,"name":"iPHONErs","duration":14},{"id":1161732,"name":"Kanna- Doom","duration":1},{"id":1154036,"name":"sailormoon1 msg4","duration":9},{"id":1157766,"name":"A Haunted House","duration":3},{"id":1026201,"name":"Diablo 3 Portal Exit","duration":2},{"id":1162756,"name":"Take your Medicine","duration":3},{"id":1163499,"name":"Game Over","duration":3},{"id":1027689,"name":"Mario paint start","duration":1},{"id":197868,"name":"Ah Sht You Got Mail","duration":3},{"id":994240,"name":"Htc One X Plus","duration":2},{"id":1147580,"name":"Papi Chulo","duration":30},{"id":1159974,"name":"Limelight","duration":28},{"id":1148384,"name":"PerfectPuzzle Gashat","duration":2},{"id":1162983,"name":"Bendiciones","duration":1},{"id":1156962,"name":"seni sana sen","duration":23},{"id":790614,"name":"Duh Duhduuuhhh","duration":3},{"id":1151231,"name":"Pass Page Three","duration":2},{"id":1162468,"name":"chariai","duration":2},{"id":1159550,"name":"MAIL MF RU","duration":3},{"id":1157504,"name":"AmpPickup","duration":1},{"id":1149173,"name":"Estradarada-Vite","duration":30},{"id":1152982,"name":"8 Second Ride-ringto","duration":20},{"id":1162930,"name":"Voorhees","duration":4},{"id":1156753,"name":"Your Heart For My No","duration":29},{"id":1164624,"name":"Piano INOSLE","duration":29},{"id":1033015,"name":"Metal Slug Victory","duration":9},{"id":1160125,"name":"Waframe-Kiddo-Male","duration":3},{"id":1164812,"name":"clay is calling rnb","duration":30},{"id":1158804,"name":"Rose Whistle","duration":4},{"id":1147618,"name":"Hoodoo Voodoo","duration":3},{"id":1153255,"name":"Whoomp Text Tone","duration":3},{"id":1161359,"name":"Chuggaconroy Scream","duration":1},{"id":1158461,"name":"R2D2","duration":1},{"id":1099790,"name":"Red Devil SQ","duration":1},{"id":1152470,"name":"GTA Alarm 1","duration":4},{"id":1153995,"name":"Phase Tone","duration":7},{"id":1114304,"name":"Lumex","duration":5},{"id":1164933,"name":"oreo-elara","duration":1},{"id":842915,"name":"Facebook Msg","duration":2},{"id":1160020,"name":"baby honey bunch","duration":29},{"id":1043748,"name":"notification39","duration":3},{"id":1160946,"name":"orange anime 17","duration":6},{"id":1164627,"name":"volkan camus gulme","duration":3},{"id":1160096,"name":"bb Jessica Noice","duration":1},{"id":1164137,"name":"mai pakistan hu","duration":18},{"id":1083747,"name":"Oppo Notification 1","duration":3},{"id":1043690,"name":"notification29","duration":1},{"id":1156578,"name":"missed call","duration":14},{"id":900233,"name":"Sorry For Everything","duration":3},{"id":1156190,"name":"ElectroMusicMIX","duration":28},{"id":1160641,"name":"NZoth","duration":7},{"id":1031691,"name":"notification sound","duration":1},{"id":1161251,"name":"Mission Impossible 2","duration":21},{"id":998742,"name":"Facebook - Female","duration":1},{"id":1157148,"name":"BoshretKheer Darbuka","duration":30},{"id":1152307,"name":"SC2 Chenjesu","duration":4},{"id":1156528,"name":"Circuit Breaker Trip","duration":7},{"id":997464,"name":"Hdpiano","duration":4},{"id":1155472,"name":"Simply the Best RMX","duration":29},{"id":1163522,"name":"Hasret negmesi","duration":25},{"id":1030241,"name":"clock notification","duration":2},{"id":1152749,"name":"synsoloxiomara","duration":23},{"id":1165234,"name":"KVP TRAP Mix","duration":30},{"id":1155534,"name":"All Alone Gorillaz","duration":3},{"id":1155527,"name":"AM R U Mine solo","duration":10},{"id":1151014,"name":"ST CommunicatorChirp","duration":1},{"id":1131072,"name":"Rocket League Crowd3","duration":1},{"id":1026114,"name":"GW2 Portal Event","duration":1},{"id":966181,"name":"Black Bond Lazer","duration":4},{"id":1000406,"name":"Lost Woods","duration":3},{"id":1164131,"name":"Pak National Antheme","duration":29},{"id":1148238,"name":"Bahubali 2 theme","duration":30},{"id":1155605,"name":"Cutest Baby Ever","duration":1},{"id":1163704,"name":"fast","duration":27},{"id":1165647,"name":"arabic music6","duration":8},{"id":1149403,"name":"nextel","duration":3},{"id":1150718,"name":"Very Sad trump","duration":1},{"id":1164919,"name":"oreo-carees","duration":1},{"id":1163240,"name":"AHMET KAYA","duration":30},{"id":1148998,"name":"WWE Rich Swann","duration":30},{"id":1163468,"name":"Thundercast","duration":17},{"id":1158058,"name":"Vissza menjel","duration":1},{"id":1043712,"name":"notification34","duration":2},{"id":975678,"name":"Lt Sportacus - Mail","duration":3},{"id":1164697,"name":"Zelda SE","duration":1},{"id":1152745,"name":"hack avatar tone","duration":2},{"id":1053361,"name":"chanyeol voice","duration":3},{"id":1160557,"name":"goka scream","duration":4}]}