{"queryTime":"1 Seconds","totalCount":794,"pageNumber":1,"perPage":200,"pageCount":200,"data":[{"id":13028,"name":"netia DJ Kot","duration":29},{"id":1293425,"name":"Pih And Peja","duration":27},{"id":131071,"name":"Christmas Carol","duration":19},{"id":1316855,"name":"Walka","duration":9},{"id":368883,"name":"Polish Disco","duration":27},{"id":1232311,"name":"Love S4 Halyna","duration":29},{"id":55651,"name":"bells christmas remix 3","duration":29},{"id":112108,"name":"First Goal","duration":17},{"id":1325343,"name":"Ania Soft","duration":17},{"id":1193635,"name":"Morwa","duration":16},{"id":7317,"name":"Komu","duration":28},{"id":1180491,"name":"Wstawaj","duration":25},{"id":1201317,"name":"Gee Jay","duration":29},{"id":247189,"name":"Ciemne Szkla","duration":28},{"id":48752,"name":"polish sms","duration":13},{"id":327352,"name":"Linijka I Cycek","duration":7},{"id":916263,"name":"Serce I Rozum Banan","duration":2},{"id":40568,"name":"christmas song 34","duration":28},{"id":1193152,"name":"Beata","duration":9},{"id":140942,"name":"Christmas","duration":28},{"id":248307,"name":"Pajujo - Reggae","duration":16},{"id":55659,"name":"bells christmas remix 2","duration":28},{"id":1305603,"name":"Nie Wiem Jak Dalej","duration":29},{"id":335276,"name":"List Do Boga","duration":29},{"id":1176263,"name":"Najszybszy W Miecie","duration":26},{"id":348959,"name":"My Love","duration":30},{"id":1221035,"name":"Pin- Pojde Pod Wiatr","duration":26},{"id":247293,"name":"Rasta Ninjah","duration":22},{"id":1256666,"name":"Hej Dziewczynki","duration":26},{"id":1203378,"name":"Big Bad Love","duration":29},{"id":253980,"name":"Video","duration":13},{"id":148801,"name":"Ruby Gloom Op Pl","duration":29},{"id":234440,"name":"Starzec","duration":28},{"id":1196229,"name":"Zmruz Oczy","duration":29},{"id":361114,"name":"Wierna Suka - Wdowa","duration":24},{"id":1285019,"name":"Tik Tak Lepper","duration":26},{"id":132948,"name":"Tarzan 3","duration":29},{"id":40074,"name":"Polish ringtones","duration":24},{"id":186493,"name":"Riki Tiki","duration":14},{"id":1358695,"name":"Kolega","duration":1},{"id":140951,"name":"Long And Junior 1","duration":28},{"id":1042190,"name":"polish music mozil","duration":14},{"id":247005,"name":"Kroki - Steps- Funy","duration":29},{"id":386357,"name":"Vodka Song","duration":29},{"id":1233071,"name":"Wdowa Wierna Suka","duration":28},{"id":217810,"name":"Dzaga","duration":29},{"id":1257399,"name":"Omp - Otzafszetu","duration":27},{"id":223067,"name":"Hey","duration":4},{"id":883733,"name":"Bede Na Pewno","duration":21},{"id":1255994,"name":"Nie Czekaj Dluzej","duration":29},{"id":277481,"name":"Rmf Fm  Baran","duration":10},{"id":349616,"name":"Bialy Mis","duration":28},{"id":370079,"name":"Senny Szept","duration":29},{"id":1289877,"name":"Pszczola Maja","duration":29},{"id":345883,"name":"Bean Polish","duration":12},{"id":1196230,"name":"To Taka Noc","duration":29},{"id":138986,"name":"Czas Honoru","duration":29},{"id":837067,"name":"Sms Nokiainwigilacja","duration":5},{"id":1251156,"name":"Ostr-mowilas Mi","duration":24},{"id":350697,"name":"Wyspa","duration":29},{"id":36018,"name":"vodko ma","duration":30},{"id":1254849,"name":"No I Co  Chuj","duration":1},{"id":175586,"name":"Kindla2","duration":29},{"id":1358719,"name":"Vocal Effect","duration":14},{"id":383213,"name":"Telefon Budzik","duration":18},{"id":1181194,"name":"Czarek Pazura Sms","duration":6},{"id":931129,"name":"Koko Euro Sopoko","duration":15},{"id":1212601,"name":"Piekniejsz","duration":29},{"id":354977,"name":"Kto Dogoni Psa","duration":18},{"id":222425,"name":"Wstawaj Szkoda Dnia","duration":10},{"id":217015,"name":"Rasta Trans","duration":29},{"id":66561,"name":"Komu","duration":28},{"id":290971,"name":"Polish","duration":24},{"id":1273247,"name":"Short And Funny","duration":14},{"id":1193677,"name":"Andrzejewicz - Slowa","duration":29},{"id":197062,"name":"Kindla","duration":29},{"id":272506,"name":"Wolny Band- Satelita","duration":28},{"id":87450,"name":"tarantella","duration":14},{"id":291070,"name":"Sasiedzi","duration":23},{"id":916264,"name":"Sou-au  Me Myself A","duration":21},{"id":252606,"name":"Spij Kochanie","duration":11},{"id":1232209,"name":"Hi Fi Superstar","duration":29},{"id":7323,"name":"Ulice","duration":28},{"id":280737,"name":"Na Ulice","duration":29},{"id":100584,"name":"polish sms","duration":3},{"id":1181448,"name":"Masz Wiadomosc","duration":4},{"id":7300,"name":"Radio Hello","duration":28},{"id":1255998,"name":"Cliver - Inny Swiat","duration":28},{"id":372505,"name":"Janosik","duration":24},{"id":1253072,"name":"Ostatni Bastion","duration":22},{"id":234243,"name":"Psychologa","duration":22},{"id":1284610,"name":"To Kajman","duration":26},{"id":230548,"name":"Szymon Wydra","duration":27},{"id":346334,"name":"Kawal O Jasiu 3","duration":28},{"id":225238,"name":"Ludzkie Zwierze","duration":29},{"id":1288978,"name":"To Smile","duration":15},{"id":381255,"name":"Calus W Tylek","duration":9},{"id":189639,"name":"Myla Moja","duration":28},{"id":230951,"name":"Nienawidze Szefa","duration":20},{"id":913554,"name":"Chicken Dance","duration":29},{"id":1190079,"name":"Sasiadka","duration":28},{"id":248451,"name":"Ladna I Cfana","duration":19},{"id":1151332,"name":"Furniture Polish","duration":17},{"id":1180527,"name":"Wybacz","duration":19},{"id":153126,"name":"Myslovitz","duration":23},{"id":1227953,"name":"2 Dragons In Polish","duration":4},{"id":1251131,"name":"Tede Ftabel","duration":21},{"id":1332324,"name":"Effect","duration":28},{"id":229586,"name":"Heledore Babe","duration":29},{"id":7535,"name":"Noce i dnie","duration":29},{"id":18142,"name":"PR\u00c4\u201eD STA\u00c5\u0081Y\/PR\u00c4\u201eD ZMIENNY","duration":30},{"id":1195807,"name":"Dj Wypas","duration":23},{"id":1111565,"name":"Mama Dzwoni -Kosciol","duration":13},{"id":100689,"name":"Dla mojej Krysi","duration":14},{"id":1216774,"name":"Verba - Kicia","duration":18},{"id":1193278,"name":"Would You Feel","duration":29},{"id":55481,"name":"christmas song 34","duration":28},{"id":42971,"name":"Matolek - RC Week 190","duration":30},{"id":233739,"name":"Oldschool Rock Sound","duration":24},{"id":234025,"name":"Bialy Mis","duration":22},{"id":1193129,"name":"Inside","duration":20},{"id":1193134,"name":"Spiewa Ucze Sie 2007","duration":22},{"id":113922,"name":"Mamunia","duration":3},{"id":363528,"name":"Nosz Kur Wa Je Bana","duration":3},{"id":364225,"name":"Polish Sms","duration":13},{"id":289036,"name":"Swiadek Koronny","duration":26},{"id":1189279,"name":"Kasia Dzwoni","duration":9},{"id":1108313,"name":"Polish Folklore","duration":21},{"id":216593,"name":"Hey","duration":15},{"id":1211680,"name":"Na Zawsze Twoj","duration":29},{"id":350718,"name":"Usmiechnij Sie","duration":28},{"id":1213040,"name":"Dongoralesko","duration":26},{"id":1110708,"name":"To Nie Ty","duration":29},{"id":349802,"name":"A Wyszkoni - Video","duration":17},{"id":1361205,"name":"Oczy Twoje","duration":29},{"id":201104,"name":"Wodko Ma","duration":28},{"id":886926,"name":"Polish Disco","duration":18},{"id":1193133,"name":"Czysta Gra","duration":21},{"id":1178848,"name":"Dupy W Glowie","duration":4},{"id":380886,"name":"Melduje Smsa","duration":2},{"id":40100,"name":"nice bells 567","duration":29},{"id":923580,"name":"Co Ja Zrobi322em","duration":28},{"id":912952,"name":"Kramer - Gwiazdor","duration":29},{"id":1259653,"name":"Przepraszam","duration":24},{"id":236850,"name":"Slonce - Happysad","duration":29},{"id":225639,"name":"Dka","duration":25},{"id":1189797,"name":"Wiecna","duration":20},{"id":232233,"name":"Czerwony Autobus","duration":21},{"id":345791,"name":"Seksmisja","duration":25},{"id":167836,"name":"Czas Honoru","duration":29},{"id":858468,"name":"Do Dupy","duration":6},{"id":66545,"name":"Radio Hello","duration":28},{"id":1201364,"name":"Przyjaciele","duration":29},{"id":1196224,"name":"Bezimienni V2","duration":29},{"id":822959,"name":"Diadem","duration":28},{"id":1089548,"name":"Paluch","duration":28},{"id":275033,"name":"Lans","duration":28},{"id":115506,"name":"Moje Kopyto","duration":4},{"id":1119444,"name":"Polska Husaria win","duration":18},{"id":334671,"name":"Wolnosc I Swoboda","duration":27},{"id":117382,"name":"Tylko Cale Zycie","duration":3},{"id":252787,"name":"W Szkole","duration":27},{"id":292312,"name":"Nigdy Samotny","duration":9},{"id":1251133,"name":"Kajman Ft Brx Norek","duration":20},{"id":350683,"name":"Dj Remo","duration":27},{"id":197578,"name":"Robert M","duration":27},{"id":349618,"name":"Na Fali","duration":18},{"id":222125,"name":"Asele","duration":29},{"id":1193272,"name":"Zrob To","duration":29},{"id":904945,"name":"2 Worlds","duration":29},{"id":1317284,"name":"Tuskotronic","duration":25},{"id":326532,"name":"Rokita W Samolocie","duration":21},{"id":1110823,"name":"Czterech lysych","duration":29},{"id":1268058,"name":"Prezes","duration":7},{"id":806602,"name":"W11 Wydzial Sledczy","duration":27},{"id":1201309,"name":"Rece Do Gory","duration":29},{"id":1260760,"name":"Techno Trance Dance","duration":29},{"id":1201355,"name":"Tancz","duration":29},{"id":1227983,"name":"Zmyslowa","duration":29},{"id":1185057,"name":"Moja Fantazja","duration":11},{"id":1111645,"name":"SMS - Swiety telefon","duration":8},{"id":822966,"name":"Kindla","duration":9},{"id":236729,"name":"Piosenka O Milosci","duration":25},{"id":792098,"name":"Bez Endu Thumbs","duration":21},{"id":923817,"name":"Wdka Sobieski","duration":29},{"id":1349948,"name":"Wredna G281ba","duration":3},{"id":350730,"name":"Mega Jump","duration":27},{"id":335799,"name":"Kupie Noz","duration":29},{"id":1250441,"name":"Suknie Kolorowe","duration":25},{"id":350736,"name":"Bezimienni","duration":29},{"id":112113,"name":"Polish Fans","duration":6},{"id":346825,"name":"Piwo Polish","duration":2},{"id":49622,"name":"Dla mojej Krysi","duration":14},{"id":1193150,"name":"Andrzej","duration":11},{"id":971057,"name":"Good Polish Remisx","duration":29},{"id":217980,"name":"The Analogs Psm","duration":25},{"id":231217,"name":"Azyl - Beth","duration":29},{"id":163333,"name":"Junior","duration":29},{"id":232402,"name":"Strachy Na Lachy","duration":29},{"id":1330961,"name":"Alvin Very Funy","duration":28}]}