{"queryTime":"5 Seconds","totalCount":266,"pageNumber":1,"perPage":200,"pageCount":200,"data":[{"id":279275,"name":"Gun","duration":7},{"id":198606,"name":"Marine Corps","duration":16},{"id":897699,"name":"Scottish Castle","duration":28},{"id":118903,"name":"Army Of The Nile","duration":29},{"id":805116,"name":"Battlefield Heroes","duration":29},{"id":126595,"name":"Charge","duration":29},{"id":378803,"name":"To The Color","duration":23},{"id":1121036,"name":"Mail call bugle","duration":5},{"id":314982,"name":"Full Metal Jacket 3","duration":11},{"id":866957,"name":"Cossacks","duration":20},{"id":1356276,"name":"Navy Fight Song","duration":27},{"id":1137176,"name":"AOE Military Unit","duration":1},{"id":1089543,"name":"Reveille Maddness","duration":10},{"id":1226803,"name":"Code Dhonneur Verse7","duration":13},{"id":332507,"name":"Russian 1","duration":12},{"id":1178264,"name":"Bring Them Back Home","duration":25},{"id":1017999,"name":"Military Taps","duration":29},{"id":1121376,"name":"Panzer Huurra","duration":2},{"id":1172233,"name":"Warning Military","duration":4},{"id":1300647,"name":"War","duration":29},{"id":118803,"name":"Airborne Cadence","duration":29},{"id":1171856,"name":"Military Aggression","duration":19},{"id":979735,"name":"Toquedecharanga","duration":13},{"id":312799,"name":"Army Msg 2009","duration":3},{"id":377485,"name":"Marine Corps Hymn","duration":29},{"id":955687,"name":"Worm","duration":14},{"id":1124991,"name":"Military Telephone","duration":9},{"id":1273568,"name":"Emergency Alarm","duration":14},{"id":1158494,"name":"Wolfenstein BoomBoom","duration":27},{"id":1125780,"name":"military wake up daw","duration":29},{"id":1338933,"name":"Empire Air Force","duration":29},{"id":885542,"name":"1st Sergeants Call","duration":4},{"id":998269,"name":"Adjutants Call","duration":10},{"id":265856,"name":"Military Radio","duration":15},{"id":1017996,"name":"First Call","duration":9},{"id":289576,"name":"Rcr March","duration":29},{"id":326449,"name":"The Poet Is Me","duration":29},{"id":354502,"name":"Patton","duration":30},{"id":1146591,"name":"Most Decisive Battle","duration":28},{"id":979732,"name":"Armysong","duration":27},{"id":328600,"name":"Cavalry Call","duration":5},{"id":952465,"name":"Uae Military Song","duration":25},{"id":1310692,"name":"1st Grenadiers March","duration":2},{"id":979727,"name":"82d March","duration":29},{"id":378680,"name":"Army Strong","duration":28},{"id":326464,"name":"Thou Shalt Not Kill","duration":6},{"id":363066,"name":"Military March","duration":6},{"id":1146413,"name":"The most Powerful","duration":29},{"id":1275236,"name":"M60 Firing","duration":26},{"id":971667,"name":"Warrior Song","duration":29},{"id":1352749,"name":"Recon Cadence Marine","duration":15},{"id":1135486,"name":"NCIS NO","duration":20},{"id":184944,"name":"9mm Tune","duration":7},{"id":900403,"name":"Vojna Akademija","duration":29},{"id":1334108,"name":"Military Call","duration":6},{"id":956539,"name":"Flag Officers March","duration":19},{"id":800586,"name":"Military Call Sms","duration":6},{"id":1199797,"name":"Warrior Message","duration":2},{"id":1361942,"name":"Donskaya","duration":23},{"id":1325235,"name":"Army Cadence","duration":28},{"id":1121859,"name":"Left to Right","duration":24},{"id":1226801,"name":"Code Dhonneur Verse5","duration":10},{"id":315606,"name":"Drum Cadence","duration":26},{"id":1005556,"name":"Military Wake Up","duration":20},{"id":924496,"name":"Sgthartman","duration":3},{"id":386286,"name":"1-2-3-4 Marine Corp","duration":17},{"id":1172479,"name":"Ur Dead Soldier","duration":6},{"id":953556,"name":"Roll Of Drums","duration":15},{"id":1035206,"name":"Trumpet","duration":4},{"id":1182537,"name":"Fire Missile","duration":9},{"id":888624,"name":"Military Column Call","duration":6},{"id":897697,"name":"Soviet Air Force","duration":27},{"id":1163911,"name":"Anchors Away","duration":30},{"id":378426,"name":"Full Metal Jacket 1","duration":17},{"id":1360880,"name":"Drum Military","duration":21},{"id":1005473,"name":"Angrybird Military","duration":1},{"id":979733,"name":"Generalsmarch2","duration":26},{"id":1105378,"name":"Military Phone Short","duration":1},{"id":979763,"name":"Internationaleger","duration":27},{"id":1017997,"name":"Flag Raising","duration":29},{"id":788668,"name":"Final","duration":29},{"id":1363570,"name":"Military Call Sms","duration":6},{"id":232495,"name":"Military Call","duration":6},{"id":1174992,"name":"Warning Message","duration":3},{"id":292007,"name":"Full Metal Jacket","duration":23},{"id":919715,"name":"Bird Next Military","duration":1},{"id":316313,"name":"Full Metal Jacket 2","duration":11},{"id":200116,"name":"Romanian Military","duration":21},{"id":1325853,"name":"Fired Up","duration":18},{"id":990288,"name":"Indian Army","duration":21},{"id":979756,"name":"International-instr","duration":19},{"id":1146427,"name":"The most Powerful2","duration":29},{"id":849352,"name":"Milatary Chooper","duration":7},{"id":1017572,"name":"Cavalry Chare Alarm","duration":5},{"id":1226802,"name":"Code Dhonneur Verse6","duration":6},{"id":904413,"name":"Military Alarm","duration":16},{"id":1291309,"name":"Gasta Get Paid Intro","duration":29},{"id":1087374,"name":"FMA Military Dog","duration":3},{"id":1088342,"name":"War Ambiance","duration":23},{"id":1096268,"name":"Military New Message","duration":1},{"id":979729,"name":"Usmcmarch","duration":29},{"id":994376,"name":"Ab Tumhare Hawale","duration":29},{"id":1096269,"name":"Military Simple","duration":1},{"id":944682,"name":"Piano Dubstep","duration":25},{"id":278480,"name":"Azonositas","duration":28},{"id":1086384,"name":"usmc hymn","duration":20},{"id":220174,"name":"Army Strong","duration":29},{"id":326520,"name":"Your Mission","duration":4},{"id":9478,"name":"drums","duration":26},{"id":1239938,"name":"Us Army","duration":28},{"id":1363142,"name":"Get Out Of Der","duration":1},{"id":958708,"name":"Here We Go","duration":29},{"id":1017998,"name":"Reveille","duration":13},{"id":111918,"name":"Military Radio","duration":5},{"id":105660,"name":"Military Alert","duration":16},{"id":111268,"name":"Military Man","duration":3},{"id":991571,"name":"Hindustan Hindustan","duration":19},{"id":1226798,"name":"Code Dhonneur Verse2","duration":14},{"id":1110272,"name":"Hunyadi Indulo","duration":29},{"id":912950,"name":"Taps Military Pride","duration":24},{"id":1096383,"name":"Military Girl Simple","duration":1},{"id":1088346,"name":"Tomahawk 2 Missile","duration":11},{"id":1143410,"name":"Halls Of MonteZuma","duration":29},{"id":1091821,"name":"Get up get up get up","duration":26},{"id":1088344,"name":"River Fire Fight","duration":29},{"id":113823,"name":"Military","duration":22},{"id":979754,"name":"Panzerlied","duration":29},{"id":1167229,"name":"Anthem Of The Lehi","duration":15},{"id":1050454,"name":"Apache Military Text","duration":2},{"id":315694,"name":"Marine Corp Cadence","duration":18},{"id":1102283,"name":"Barney the dinosaur","duration":24},{"id":1356278,"name":"Us Air Force","duration":17},{"id":380509,"name":"Drum Cadence","duration":26},{"id":1152362,"name":"bf1 shotgun","duration":1},{"id":1251041,"name":"Full Metal Jacket 5","duration":18},{"id":1140322,"name":"Flight of Bumblebee","duration":29},{"id":328343,"name":"Military Trumpet","duration":29},{"id":323585,"name":"Army Soul","duration":26},{"id":1281121,"name":"Military","duration":29},{"id":1160474,"name":"Turkum Serhat Trap","duration":29},{"id":897690,"name":"St Patrick March","duration":28},{"id":1354974,"name":"Commandos 3 Ringtone","duration":15},{"id":897689,"name":"Russian Navy March","duration":26},{"id":1203602,"name":"Military Marines","duration":16},{"id":979731,"name":"Adjutantscall","duration":9},{"id":1003051,"name":"Army Wake Up","duration":21},{"id":960430,"name":"General Quarters","duration":18},{"id":1293003,"name":"New Tone","duration":6},{"id":897686,"name":"Soviet Navy March","duration":24},{"id":998365,"name":"British Grenadiers","duration":24},{"id":1025097,"name":"Space Marine","duration":2},{"id":888398,"name":"Marine Corps Hymn","duration":19},{"id":1297010,"name":"German Fanfare","duration":22},{"id":1165789,"name":"Panzer Vor","duration":29},{"id":1021476,"name":"DRILL SERGEANT","duration":29},{"id":379661,"name":"Attention Bugle Call","duration":6},{"id":1152538,"name":"Horn 2017","duration":15},{"id":1226796,"name":"Code Dhonneur Verse1","duration":6},{"id":1012720,"name":"Wake Up Call","duration":13},{"id":850122,"name":"Helicopter Military","duration":6},{"id":1226310,"name":"Military Armycadence","duration":29},{"id":1088347,"name":"Heavy Mortar Fire","duration":14},{"id":1219161,"name":"Laser - Realistic","duration":2},{"id":1296204,"name":"Saluto Alla Bandiera","duration":7},{"id":1159526,"name":"Military Cocktails","duration":5},{"id":1189099,"name":"Military","duration":6},{"id":1088343,"name":"Arctic Shooting","duration":10},{"id":1161297,"name":"River of Kwai March","duration":20},{"id":986742,"name":"Call To The Post","duration":8},{"id":1338557,"name":"Blackberry Military","duration":3},{"id":977154,"name":"Attention","duration":1},{"id":996432,"name":"Badenweiler March","duration":17},{"id":291203,"name":"Military Warning","duration":5},{"id":922077,"name":"Air Force","duration":17},{"id":885544,"name":"Drill Instructor 01","duration":16},{"id":1003048,"name":"Wake Up Short","duration":6},{"id":785736,"name":"Gun Shot","duration":2},{"id":954819,"name":"Shief","duration":2},{"id":363071,"name":"Us Army Song","duration":16},{"id":343152,"name":"Koenigraetzer Marsch","duration":21},{"id":790166,"name":"Helicopter","duration":2},{"id":1276316,"name":"Preobrazhenskiy Mar6","duration":29},{"id":1003047,"name":"Army Whistle","duration":20},{"id":1088348,"name":"Mk 46 30mm Gun","duration":26},{"id":1096850,"name":"Military Drums","duration":17},{"id":897707,"name":"Kiev Grenadiers","duration":29},{"id":894652,"name":"Stach-military","duration":20},{"id":278470,"name":"Fohasz","duration":29},{"id":938094,"name":"Military Sms","duration":6},{"id":1093979,"name":"New Army Song","duration":26},{"id":191896,"name":"Full Metal Panic Ost","duration":29},{"id":1226799,"name":"Code Dhonneur Verse4","duration":10},{"id":1251040,"name":"Full Metal Jacket 4","duration":10},{"id":186381,"name":"Rez Band","duration":29},{"id":367066,"name":"Usmc For Sgha877","duration":15},{"id":1353877,"name":"Cadence Left Right","duration":20},{"id":1017986,"name":"Stripes Theme","duration":29},{"id":1018813,"name":"Girlfriend Calling","duration":29},{"id":378308,"name":"Military Taps","duration":25},{"id":314904,"name":"Fanfare","duration":4}]}