{"queryTime":"4 Seconds","totalCount":293,"pageNumber":1,"perPage":200,"pageCount":200,"data":[{"id":1095394,"name":"Rhythm","duration":20},{"id":1316579,"name":"Old Phone","duration":5},{"id":1255366,"name":"France Old Phone","duration":10},{"id":1092604,"name":"Old Phone Ringing2","duration":4},{"id":13842,"name":"Old Phone","duration":2},{"id":989824,"name":"Telephone","duration":6},{"id":35614,"name":"old phone","duration":6},{"id":964502,"name":"My Home Old Phone","duration":2},{"id":1092374,"name":"Best old phone mixer","duration":13},{"id":107326,"name":"Old Phone","duration":4},{"id":94997,"name":"phone_ringing","duration":7},{"id":926901,"name":"Old Phone","duration":6},{"id":189220,"name":"Ring Ring","duration":18},{"id":348151,"name":"Old Phone","duration":3},{"id":889975,"name":"Iphone Oldphone","duration":4},{"id":814627,"name":"Old Phone","duration":21},{"id":1055195,"name":"Office phone 5","duration":29},{"id":363367,"name":"Old Phone","duration":15},{"id":1207319,"name":"Old Ringer","duration":6},{"id":90635,"name":"Old Phone Ringing","duration":7},{"id":362379,"name":"Old Phone","duration":2},{"id":1092603,"name":"Old Phone ringing","duration":2},{"id":1002528,"name":"No1 Old Office Tone","duration":14},{"id":140885,"name":"Techno Ring Phone","duration":29},{"id":1023597,"name":"OldPhone","duration":2},{"id":782459,"name":"Phone Riiiiiiing","duration":7},{"id":1139314,"name":"Different old phone5","duration":29},{"id":1003541,"name":"Over The Hills","duration":15},{"id":1126002,"name":"Different old phone2","duration":28},{"id":1019576,"name":"Old Icelandic Phone","duration":29},{"id":859889,"name":"Digital Tone","duration":8},{"id":1313962,"name":"Old Phone Ringing","duration":12},{"id":799192,"name":"Older Phone Ring","duration":6},{"id":800039,"name":"Old Phone","duration":6},{"id":1125876,"name":"Echophone 3","duration":26},{"id":1086213,"name":"Office phone 9","duration":27},{"id":1140710,"name":"Disturbed Old Phone","duration":29},{"id":327994,"name":"Home Ringtone","duration":21},{"id":1038878,"name":"Old","duration":4},{"id":995608,"name":"Buisness Phone 2013","duration":7},{"id":1198242,"name":"3ring Antique Phone","duration":10},{"id":102986,"name":"Tring Tring Tring","duration":28},{"id":1038861,"name":"Old Phone","duration":8},{"id":337424,"name":"Old Phone Ring","duration":20},{"id":262200,"name":"Funtone Effect  Old","duration":2},{"id":1209714,"name":"Remax-eurobell2","duration":29},{"id":1255753,"name":"Oldnewphone","duration":15},{"id":315446,"name":"Old Phone","duration":20},{"id":1086344,"name":"Home phone","duration":28},{"id":291455,"name":"Old Phone","duration":6},{"id":1232239,"name":"Old Phone","duration":7},{"id":793504,"name":"Old Phone Real Ring","duration":5},{"id":1349193,"name":"Old Phone","duration":11},{"id":168245,"name":"Old Phone","duration":2},{"id":207905,"name":"Old Phone","duration":4},{"id":1019562,"name":"Old Swedish Phone","duration":29},{"id":856854,"name":"Retro Phone Ring","duration":19},{"id":891298,"name":"Old Phone","duration":2},{"id":1041844,"name":"Old phone","duration":2},{"id":103787,"name":"Old Phone 2","duration":28},{"id":784695,"name":"Old Phone","duration":5},{"id":1126003,"name":"Different old phone3","duration":28},{"id":1215541,"name":"Old Phone","duration":3},{"id":1009994,"name":"Looper 4","duration":19},{"id":1261586,"name":"Rotery Ring","duration":9},{"id":793367,"name":"Pick Up","duration":4},{"id":10444,"name":"Old Phone Ringing","duration":3},{"id":1236095,"name":"Ring A Ling A Ring","duration":23},{"id":969638,"name":"Very Annoying Ringer","duration":18},{"id":1336896,"name":"Old Phone","duration":20},{"id":995719,"name":"Simple Old Ring","duration":14},{"id":1050277,"name":"Office phone 4","duration":29},{"id":299350,"name":"Old Phone By Aj","duration":6},{"id":997606,"name":"Retro Phone Sms","duration":16},{"id":1310870,"name":"Best Old Phone Mixer","duration":12},{"id":1260300,"name":"Old Cell Phone","duration":2},{"id":995288,"name":"Old Office Phone","duration":24},{"id":1261929,"name":"Digital","duration":1},{"id":904629,"name":"Old Phone","duration":15},{"id":1148774,"name":"Bleep Vieux mobile","duration":25},{"id":894726,"name":"Cordless Phone Ring","duration":25},{"id":1139623,"name":"Different old phone8","duration":28},{"id":232273,"name":"Old Phone Ring","duration":10},{"id":232833,"name":"Phone Effect","duration":2},{"id":1280791,"name":"Old Phone New","duration":20},{"id":1146246,"name":"Different old phone9","duration":28},{"id":927257,"name":"Clean Old Phone","duration":8},{"id":1002962,"name":"Airwolf","duration":29},{"id":1025042,"name":"Phone Ring","duration":3},{"id":350892,"name":"Old Phone","duration":3},{"id":1277958,"name":"Old Phone Remix","duration":29},{"id":1357313,"name":"Old Phone","duration":6},{"id":385327,"name":"Skype Old Phone","duration":4},{"id":59385,"name":"old phone","duration":13},{"id":1356674,"name":"Classic Phone","duration":3},{"id":1002961,"name":"Crockts Theme","duration":29},{"id":1330708,"name":"Old Phone","duration":22},{"id":1140083,"name":"Home phone 6","duration":28},{"id":1015124,"name":"Bicycle Bell","duration":4},{"id":245562,"name":"Old Phone","duration":2},{"id":287373,"name":"Phone Ringing","duration":13},{"id":1227344,"name":"2 Ring Antique","duration":6},{"id":328963,"name":"Old Phone","duration":2},{"id":1108289,"name":"Clean old phone","duration":8},{"id":378649,"name":"Old Fashion Phone","duration":3},{"id":328333,"name":"Digital Phone Ring","duration":8},{"id":1226168,"name":"Atm Ringer","duration":20},{"id":293777,"name":"Banana Phone","duration":30},{"id":1036693,"name":"bill phone","duration":6},{"id":1009993,"name":"Iphone Old Phone","duration":19},{"id":125695,"name":"Old Phone","duration":6},{"id":330210,"name":"Old Phone","duration":2},{"id":1015376,"name":"Answer The Phone","duration":25},{"id":1008721,"name":"Old Phone","duration":2},{"id":791974,"name":"Old Phone Style","duration":1},{"id":79307,"name":"Classic Phone Ring","duration":17},{"id":995603,"name":"New Cell Phone Cool","duration":18},{"id":1012159,"name":"Classic Phone","duration":6},{"id":265322,"name":"Old Phone","duration":6},{"id":1357377,"name":"Classic Phone","duration":4},{"id":1035385,"name":"Classic Ring Phone","duration":13},{"id":331169,"name":"Old Phone Ring","duration":29},{"id":778903,"name":"Orignal","duration":7},{"id":314922,"name":"Old Phone","duration":3},{"id":888599,"name":"Old Phone Rings","duration":14},{"id":1243859,"name":"Business Ringtone 1","duration":6},{"id":1211367,"name":"Old Phone Tone","duration":2},{"id":995569,"name":"Classic Old Phone","duration":22},{"id":1032783,"name":"Old Phone","duration":13},{"id":110814,"name":"Zzzzzz Ringtone","duration":14},{"id":3827,"name":"New iPhone Stereo ALARM sound","duration":12},{"id":985759,"name":"Telephone Ring","duration":3},{"id":801784,"name":"Nice Ring Ring","duration":16},{"id":328571,"name":"Phone Ring Echo","duration":8},{"id":944043,"name":"Dial Phone Number","duration":18},{"id":1243862,"name":"Tiny Ringtone","duration":14},{"id":328871,"name":"Old Phone","duration":11},{"id":1043355,"name":"Old Style UK ringing","duration":3},{"id":1232927,"name":"Old Ring Mix","duration":20},{"id":1039315,"name":"Old phone loud","duration":21},{"id":1139622,"name":"Different old phone7","duration":28},{"id":1025356,"name":"alec old phone 2","duration":6},{"id":327973,"name":"1985 Ring","duration":12},{"id":967310,"name":"Ringtone-old Phone","duration":29},{"id":1139621,"name":"Different old phone6","duration":28},{"id":1359756,"name":"Phone Bend","duration":5},{"id":1147067,"name":"Ringing Phone","duration":12},{"id":832802,"name":"Old Phone 2011","duration":6},{"id":1238135,"name":"Wall Street Office","duration":7},{"id":1054977,"name":"Favorite Old Phone","duration":2},{"id":1257336,"name":"Old Man","duration":23},{"id":45010,"name":"Origenal Old Phone","duration":6},{"id":1045962,"name":"Old Cell Phone RT","duration":6},{"id":1335849,"name":"Old Phone","duration":1},{"id":807212,"name":"Old Phone Sms","duration":6},{"id":1162026,"name":"Beat up Old Phone","duration":1},{"id":1084674,"name":"Old Nextel Ring","duration":1},{"id":1055351,"name":"Office phone 7","duration":29},{"id":1092289,"name":"old phone ringtone","duration":10},{"id":1250779,"name":"Old Phone","duration":20},{"id":329471,"name":"2 Ring Phone","duration":15},{"id":1125707,"name":"Home phone 3","duration":27},{"id":125526,"name":"Old Phone","duration":2},{"id":1186192,"name":"Old Phone","duration":1},{"id":1018663,"name":"Old Phone Bell","duration":2},{"id":1025360,"name":"OldRing Best","duration":29},{"id":1209713,"name":"Remax-eurobell","duration":22},{"id":10080,"name":"Best new iPhone ALARM 2011","duration":11},{"id":1172033,"name":"Motorola Continental","duration":1},{"id":1009992,"name":"Iphone Old Phone Rpt","duration":19},{"id":1362494,"name":"1987 Phone Ring","duration":6},{"id":860346,"name":"Old Phone Ring","duration":27},{"id":1338686,"name":"Active","duration":5},{"id":1229603,"name":"Old Ring","duration":6},{"id":1143133,"name":"Old Brit Telephone","duration":5},{"id":1227345,"name":"1 Chirp Ring","duration":4},{"id":386081,"name":"Old Phone 2","duration":2},{"id":1204017,"name":"Old Phone","duration":6},{"id":1039735,"name":"Classic Business HQ","duration":23},{"id":243029,"name":"Old Phone","duration":6},{"id":989144,"name":"Old Phone","duration":6},{"id":993595,"name":"Old Style Phone","duration":12},{"id":843264,"name":"Old Phone","duration":6},{"id":1332420,"name":"Old Phone Tone","duration":3},{"id":1139624,"name":"Office phone 10","duration":28},{"id":999975,"name":"Old Phone Cool No1","duration":17},{"id":1146403,"name":"Home phone 7","duration":28},{"id":330703,"name":"Echo Ringtone","duration":8},{"id":777932,"name":"Old Phone","duration":6},{"id":1246026,"name":"Answer The Phone","duration":16},{"id":800872,"name":"Old  Phone","duration":6},{"id":1019119,"name":"Old American Phone","duration":28},{"id":814860,"name":"Effect  Old Phone","duration":10},{"id":328209,"name":"Old Phone Ringtone","duration":23},{"id":1283306,"name":"Old British Phone","duration":5},{"id":1274052,"name":"At Least Shut It Up","duration":11},{"id":380219,"name":"Classic Phone","duration":6},{"id":831733,"name":"Old Phone","duration":6},{"id":1100228,"name":"Old Phone Bell","duration":26},{"id":314216,"name":"Classic Phone","duration":6}]}