{"queryTime":"3 Seconds","totalCount":6662,"pageNumber":1,"perPage":200,"pageCount":200,"data":[{"id":148063,"name":"Electramelodic07","duration":20},{"id":926065,"name":"Avatar 1","duration":29},{"id":1074140,"name":"Malcolm Is Calling Inspirational","duration":40},{"id":1212992,"name":"Violin Beat","duration":8},{"id":1308539,"name":"Piano Great","duration":18},{"id":1076671,"name":"Andrea Is Calling Inspirational","duration":40},{"id":949025,"name":"Piano Vs Violin","duration":28},{"id":46312,"name":"Comptine_best_part_piano","duration":29},{"id":15391,"name":"Love piano","duration":28},{"id":1009952,"name":"Drewaniane Piano","duration":29},{"id":110726,"name":"Rain","duration":29},{"id":338546,"name":"Romantic Piano","duration":29},{"id":86765,"name":"Soft piano","duration":20},{"id":807177,"name":"Best Piano 2010","duration":14},{"id":800810,"name":"Piano Waka Waka","duration":16},{"id":1022503,"name":"MrRogersNeighborhood","duration":25},{"id":1075886,"name":"Amaya Is Calling Inspirational","duration":40},{"id":970789,"name":"Saiyaara Piano","duration":10},{"id":289351,"name":"Al Harmi-best Piano","duration":29},{"id":1074050,"name":"Myra Is Calling Inspirational","duration":40},{"id":1319276,"name":"Nice Piano","duration":22},{"id":1135428,"name":"DB Super Piano","duration":21},{"id":824373,"name":"Melody","duration":29},{"id":45436,"name":"piano","duration":5},{"id":143539,"name":"Ya Kaleni Sklanyu","duration":29},{"id":1174748,"name":"Piano","duration":24},{"id":881217,"name":"Romantic","duration":22},{"id":1039803,"name":"heart touching","duration":16},{"id":1180290,"name":"Romance","duration":29},{"id":1110710,"name":"Tobie Podaruje","duration":29},{"id":357960,"name":"Kingdom Memories I","duration":20},{"id":1210539,"name":"Dostana Msg Tone","duration":4},{"id":1119029,"name":"Shadows Cry MoreLife","duration":26},{"id":336413,"name":"Matrimonour D Amour","duration":27},{"id":1074537,"name":"Kenneth Is Calling Inspirational","duration":40},{"id":891226,"name":"Piano 01","duration":20},{"id":1010315,"name":"La Noire Piano","duration":29},{"id":1298622,"name":"Maula Mere Maula","duration":29},{"id":1075166,"name":"Maxx Is Calling Inspirational","duration":40},{"id":1159504,"name":"Piano sounds","duration":19},{"id":808496,"name":"To Chalun","duration":13},{"id":1074102,"name":"Gustavo Is Calling Inspirational","duration":40},{"id":899755,"name":"Awesome","duration":22},{"id":982847,"name":"Thandavam","duration":16},{"id":1031173,"name":"Let it Go","duration":29},{"id":1074538,"name":"Raven Is Calling Inspirational","duration":40},{"id":974746,"name":"Beautiful Piano","duration":27},{"id":1076205,"name":"Rylan Is Calling Inspirational","duration":40},{"id":344170,"name":"Cute Piano","duration":19},{"id":287351,"name":"Omar Kayrat   01","duration":29},{"id":1073875,"name":"Damien Is Calling Inspirational","duration":40},{"id":1200529,"name":"Funny Piano","duration":13},{"id":865861,"name":"Peaceful Piano","duration":25},{"id":1113578,"name":"Game of ThronesPiano","duration":20},{"id":1075684,"name":"Natalie Is Calling Inspirational","duration":40},{"id":129349,"name":"Piano","duration":27},{"id":1073437,"name":"Ayaan Is Calling Inspirational","duration":40},{"id":842757,"name":"Awesome Piano","duration":29},{"id":854701,"name":"Piano Player","duration":27},{"id":1085250,"name":"Lovely Piano","duration":21},{"id":351261,"name":"Oxygene Echoes","duration":24},{"id":1074836,"name":"Evangeline Is Calling Inspirational","duration":40},{"id":907893,"name":"Humsafar Background","duration":29},{"id":1008827,"name":"1901","duration":29},{"id":1075068,"name":"Sierra Is Calling Inspirational","duration":40},{"id":1074282,"name":"Mariana Is Calling Inspirational","duration":40},{"id":119726,"name":"Malaguena Piano","duration":29},{"id":1273031,"name":"Piano","duration":10},{"id":1074968,"name":"Anne Is Calling Inspirational","duration":40},{"id":952581,"name":"I Am In Love","duration":28},{"id":1040818,"name":"Piano Vs Red Violin","duration":28},{"id":122167,"name":"Nodame Cantible","duration":29},{"id":1073603,"name":"Drew Is Calling Inspirational","duration":40},{"id":1075297,"name":"Adriana Is Calling Inspirational","duration":40},{"id":1073317,"name":"Taylor Is Calling Inspirational","duration":40},{"id":46212,"name":"Soft Piano","duration":20},{"id":1299555,"name":"Best Piano","duration":29},{"id":1075692,"name":"Angelo Is Calling Inspirational","duration":40},{"id":1231621,"name":"Forest Piano","duration":29},{"id":1041710,"name":"Challa Piano","duration":26},{"id":1009819,"name":"Ishq Walla Love","duration":23},{"id":837055,"name":"Piano Sms","duration":4},{"id":960276,"name":"Sweeeet","duration":28},{"id":870907,"name":"Relaxing Piano","duration":9},{"id":830751,"name":"Waiting4u Piano","duration":14},{"id":1074933,"name":"Alan Is Calling Inspirational","duration":40},{"id":344484,"name":"Al Jasmi-bwda3ak","duration":27},{"id":1119020,"name":"Rogue of Winter 2","duration":25},{"id":1200102,"name":"Fan Yu Chen- Piano","duration":28},{"id":935604,"name":"Piano Lovely","duration":20},{"id":1074966,"name":"Kayleigh Is Calling Inspirational","duration":40},{"id":1075653,"name":"Talia Is Calling Inspirational","duration":40},{"id":1287309,"name":"Rnbdj Piano","duration":28},{"id":1074254,"name":"Brayden Is Calling Inspirational","duration":40},{"id":130589,"name":"Piano Beat","duration":21},{"id":1074861,"name":"Izabella Is Calling Inspirational","duration":40},{"id":1117123,"name":"Blues Magic","duration":21},{"id":17242,"name":"sad song","duration":21},{"id":1075322,"name":"Kelsie Is Calling Inspirational","duration":40},{"id":288058,"name":"Fma - Kodoku","duration":24},{"id":1024618,"name":"WhereThem Girls kiSu","duration":29},{"id":1323669,"name":"Crazy Piano Ringtone","duration":13},{"id":87446,"name":"piano campanas","duration":11},{"id":1074571,"name":"Stephanie Is Calling Inspirational","duration":40},{"id":1226706,"name":"Piano Melody","duration":29},{"id":779423,"name":"Payneful Piano","duration":28},{"id":1356989,"name":"Romance Piano","duration":28},{"id":1108717,"name":"quantic","duration":25},{"id":1155361,"name":"Sakura Drops","duration":22},{"id":289649,"name":"Nostalgy 2","duration":27},{"id":243762,"name":"Dreamy Piano","duration":22},{"id":1133285,"name":"Fantasia marcia 1","duration":29},{"id":1075918,"name":"Brice Is Calling Inspirational","duration":40},{"id":835715,"name":"Cutest Ringtone","duration":29},{"id":1189788,"name":"Sad Piano Music","duration":24},{"id":1076482,"name":"Makenna Is Calling Inspirational","duration":40},{"id":871944,"name":"Heart Touching","duration":28},{"id":1074880,"name":"Lane Is Calling Inspirational","duration":40},{"id":888825,"name":"Blueberry Stream","duration":29},{"id":1278705,"name":"Dark Piano Art","duration":29},{"id":913282,"name":"Fairy","duration":27},{"id":138747,"name":"Piano H3d","duration":25},{"id":1074893,"name":"Moses Is Calling Inspirational","duration":40},{"id":1015631,"name":"Bad Apple Piano","duration":25},{"id":1076013,"name":"Raul Is Calling Inspirational","duration":40},{"id":1073315,"name":"Fisher Is Calling Inspirational","duration":40},{"id":1074701,"name":"Marco Is Calling Inspirational","duration":40},{"id":1074889,"name":"Terrell Is Calling Inspirational","duration":40},{"id":1270678,"name":"Chopstix - Piano Big","duration":29},{"id":1261607,"name":"Bach Performance","duration":29},{"id":332559,"name":"Anbendra Tamil Piano","duration":16},{"id":1285951,"name":"Dirty South Piano","duration":24},{"id":905444,"name":"The Killing Piano","duration":19},{"id":885713,"name":"Piano","duration":27},{"id":1075395,"name":"Piper Is Calling Inspirational","duration":40},{"id":1075603,"name":"Ashton Is Calling Inspirational","duration":40},{"id":1075091,"name":"Kendall Is Calling Inspirational","duration":40},{"id":1075274,"name":"Erik Is Calling Inspirational","duration":40},{"id":1073797,"name":"Arlo Is Calling Inspirational","duration":40},{"id":314505,"name":"Akeboshi Wind 1","duration":9},{"id":1305146,"name":"Love Music2","duration":29},{"id":916329,"name":"Scrubs","duration":16},{"id":824849,"name":"Kuchistarahpiano","duration":28},{"id":999887,"name":"Piano Tone","duration":29},{"id":1073595,"name":"Arya Is Calling Inspirational","duration":40},{"id":1281993,"name":"Sawariya Piano","duration":18},{"id":1310535,"name":"Aimo Piano","duration":29},{"id":872700,"name":"Slow Piano","duration":29},{"id":149947,"name":"Airtel Piano","duration":28},{"id":88079,"name":"Classic Piano","duration":29},{"id":1141973,"name":"TheBestPianoRelax","duration":21},{"id":906726,"name":"Tum Ho Piano","duration":19},{"id":1076367,"name":"Cameron Is Calling Inspirational","duration":40},{"id":128725,"name":"Nice Ringtone","duration":19},{"id":1032976,"name":"Love Beat","duration":29},{"id":115519,"name":"Coming Home","duration":23},{"id":287409,"name":"Piano And Violin","duration":29},{"id":287306,"name":"Piano Sivot","duration":23},{"id":940636,"name":"Love Piano","duration":25},{"id":1000037,"name":"Beauty Piano","duration":27},{"id":191089,"name":"Energetic Guitar","duration":29},{"id":1075763,"name":"Ivanna Is Calling Inspirational","duration":40},{"id":1073310,"name":"Monica Is Calling Inspirational","duration":40},{"id":1074840,"name":"Natalya Is Calling Inspirational","duration":40},{"id":343523,"name":"Aadat Piano","duration":28},{"id":815291,"name":"Piano Mix","duration":28},{"id":1333007,"name":"Ajab Prem Piano","duration":29},{"id":1086506,"name":"Bully - The Setup","duration":17},{"id":1227623,"name":"Howls Moving Castle","duration":20},{"id":184856,"name":"Piano Jazz","duration":14},{"id":267129,"name":"Theme Song","duration":6},{"id":1076633,"name":"Cailyn Is Calling Inspirational","duration":40},{"id":960768,"name":"Pal Pal Dil Ke Paas","duration":23},{"id":1012002,"name":"Piano Disco","duration":29},{"id":302102,"name":"Sound Of Rain","duration":29},{"id":1075472,"name":"Kenny Is Calling Inspirational","duration":40},{"id":175247,"name":"Romanian Piano","duration":24},{"id":1024396,"name":"Sonnet","duration":14},{"id":1214793,"name":"Lp Piano","duration":9},{"id":1155360,"name":"5th Melody of Night2","duration":30},{"id":1074034,"name":"Zara Is Calling Inspirational","duration":40},{"id":1247945,"name":"Nice Piano Tune","duration":20},{"id":807839,"name":"Fashion Piano","duration":26},{"id":1363676,"name":"City Light","duration":29},{"id":1137948,"name":"E Flat harmonic Scal","duration":29},{"id":839779,"name":"Sad Piano","duration":29},{"id":1043489,"name":"best piano","duration":29},{"id":1136229,"name":"Da Vincis","duration":19},{"id":43597,"name":"nice piano","duration":24},{"id":1076247,"name":"Tabitha Is Calling Inspirational","duration":40},{"id":1075217,"name":"Chance Is Calling Inspirational","duration":40},{"id":1270040,"name":"Nice Piano Tone","duration":27},{"id":1218938,"name":"Nokia - Best Ever","duration":29},{"id":1018445,"name":"Missing U Piano","duration":29},{"id":795761,"name":"Psycho Piano","duration":29},{"id":1111235,"name":"Rolling","duration":17},{"id":136090,"name":"Piano Trance","duration":25},{"id":1075512,"name":"Averi Is Calling Inspirational","duration":40},{"id":282651,"name":"Dilwale - Ajay","duration":29},{"id":831776,"name":"No 1 Sms 2011","duration":6}]}