{"queryTime":"1 Seconds","totalCount":467,"pageNumber":1,"perPage":200,"pageCount":200,"data":[{"id":1315593,"name":"Male Mane","duration":29},{"id":12508,"name":"Mara Beboos ~ \u00d9\u2026\u00d8\u00b1\u00d8\u00a7 \u00d8\u00a8\u00d8\u00a8\u00d9\u02c6\u00d8\u00b3","duration":30},{"id":59903,"name":"Nedaye Iran ~ \u00d9\u2020\u00d8\u00af\u00d8\u00a7\u00db\u0152 \u00d8\u00a7\u00db\u0152\u00d8\u00b1\u00d8\u00a7\u00d9\u2020","duration":27},{"id":46002,"name":"7W5B","duration":23},{"id":52988,"name":"OUD","duration":23},{"id":1321061,"name":"Bia Ashegham Kon","duration":22},{"id":933284,"name":"Delbare Man","duration":29},{"id":1312963,"name":"Cheshmaye Man","duration":29},{"id":973332,"name":"Moein - Majnoon","duration":29},{"id":334921,"name":"Bandari Ey Yar","duration":28},{"id":1190957,"name":"Nokia-persian","duration":29},{"id":1314152,"name":"Hanoozam Asheghetam","duration":29},{"id":1151313,"name":"Asheghane Guitar","duration":21},{"id":1196586,"name":"Flute","duration":25},{"id":42248,"name":"Zire Saghfe Tehrun ~ \u00d8\u00b2\u00db\u0152\u00d8\u00b1 \u00d8\u00b3\u00d9\u201a\u00d9\u0081 \u00d8\u00aa\u00d9\u2021\u00d8\u00b1\u00d9\u02c6\u00d9\u2020","duration":30},{"id":129287,"name":"Pianooo","duration":13},{"id":1310531,"name":"Tasnife Barun","duration":29},{"id":882758,"name":"Key","duration":27},{"id":59979,"name":"Ey Iran - Opera","duration":28},{"id":244189,"name":"Age Bashi","duration":19},{"id":279240,"name":"Persian Guitar","duration":28},{"id":896757,"name":"Boro Bye Bye","duration":29},{"id":1040766,"name":"Ebru Gundes","duration":29},{"id":62926,"name":"Mano Tanha nazar","duration":9},{"id":225286,"name":"Begoo Binam Nadidish","duration":24},{"id":1154817,"name":"Mikoobe","duration":30},{"id":1225443,"name":"Dastat","duration":29},{"id":1040764,"name":"Begoo ey yar begoo","duration":16},{"id":1040768,"name":"Ey Joonam","duration":20},{"id":1315432,"name":"Persian Flute","duration":4},{"id":28154,"name":"Esfuni Brat","duration":28},{"id":36265,"name":"Gele Gele","duration":29},{"id":1154820,"name":"Se Fue","duration":30},{"id":1319914,"name":"Noghteye Koor","duration":29},{"id":1275290,"name":"Aroosake Man","duration":29},{"id":867417,"name":"Persian Song","duration":28},{"id":1180377,"name":"Gole E Bagh","duration":28},{"id":1052743,"name":"Sogand Dore Zamin","duration":27},{"id":1312763,"name":"Dobare Eshgh","duration":29},{"id":829906,"name":"Persian Arabian Ring","duration":28},{"id":865404,"name":"Faghat To Nisti","duration":29},{"id":36213,"name":"Yare Dabestaniye Man - \u00db\u0152\u00d8\u00a7\u00d8\u00b1 \u00d8\u00af\u00d8\u00a8\u00d8\u00b3\u00d8\u00aa\u00d8\u00a7\u00d9\u2020\u00db\u0152 \u00d9\u2026\u00d9\u2020","duration":29},{"id":1342027,"name":"Persian","duration":29},{"id":20660,"name":"Na Na Na","duration":30},{"id":776359,"name":"Baghe Bi Bargi","duration":14},{"id":253498,"name":"Persian","duration":29},{"id":387646,"name":"100 Turkish","duration":28},{"id":868941,"name":"Guitar - Persian","duration":19},{"id":1267958,"name":"Dokhtare Kabol","duration":16},{"id":12730,"name":"Blood Games ~ \u00d8\u00ae\u00d9\u02c6\u00d9\u2020 \u00d8\u00a8\u00d8\u00a7\u00d8\u00b2\u00db\u0152","duration":28},{"id":1040767,"name":"Ehsas Shirin","duration":27},{"id":1219281,"name":"Love Ring","duration":16},{"id":172046,"name":"Persian Guitar","duration":28},{"id":28037,"name":"Gooze Kagh (2) \u00da\u00af\u00d9\u02c6\u00d8\u00b2 \u00da\u00a9\u00d9\u017d\u00d8\u00ba","duration":30},{"id":1180112,"name":"Hichkas","duration":23},{"id":167534,"name":"Persian Guitar","duration":28},{"id":1271032,"name":"Nazanin 1","duration":29},{"id":1282223,"name":"Love You","duration":28},{"id":1326570,"name":"Delbar","duration":29},{"id":36467,"name":"Gole Sangam ~ \u00da\u00af\u00d9\u2039\u00d9\u201e\u00d9\u0090 \u00d8\u00b3\u00d9\u2020\u00da\u00af\u00d9\u2026","duration":15},{"id":1272193,"name":"Remix Cheshmhash","duration":29},{"id":1040576,"name":"Topoly","duration":25},{"id":336036,"name":"Mahasti","duration":28},{"id":333109,"name":"Persian Guitar","duration":27},{"id":21332,"name":"To Eshghe Mani","duration":29},{"id":131818,"name":"Stay With Me","duration":27},{"id":60178,"name":"HeyDarZadeh","duration":28},{"id":1173519,"name":"Persian Music","duration":27},{"id":1130332,"name":"Spring Arrives","duration":29},{"id":229884,"name":"Persian Rock","duration":29},{"id":1253249,"name":"Chetor Delet Omad","duration":19},{"id":223441,"name":"Eshgho Mikham Ba To","duration":29},{"id":114411,"name":"Persian Guita","duration":19},{"id":335582,"name":"Gule Barani","duration":29},{"id":1040772,"name":"Shahyad","duration":25},{"id":228224,"name":"Boghz Shekasteh","duration":13},{"id":1271553,"name":"Irane Sabz","duration":19},{"id":1116177,"name":"santoor persian ens","duration":29},{"id":162203,"name":"Sasy Mankan","duration":24},{"id":1154816,"name":"Havaye To","duration":30},{"id":1173903,"name":"Ahmad Zahir","duration":29},{"id":48543,"name":"Persian Guy","duration":30},{"id":1271061,"name":"Dokhtare Bandar 2","duration":29},{"id":44935,"name":"Donya - RC Week 184","duration":28},{"id":1010499,"name":"Iranenaz 01","duration":25},{"id":1250024,"name":"Toro Doost Daram","duration":28},{"id":1188798,"name":"Hajee Sandy","duration":28},{"id":1019115,"name":"Persian Sms","duration":4},{"id":73949,"name":"Mano Tanha nazar","duration":9},{"id":1269866,"name":"Allah Zari","duration":29},{"id":975819,"name":"Gole Sangam","duration":29},{"id":1234161,"name":"Ashegho Mashoogh","duration":29},{"id":245688,"name":"Oomadam","duration":16},{"id":228038,"name":"Paimaana","duration":13},{"id":884057,"name":"Panahgah Remix","duration":26},{"id":60054,"name":"Gole Sangam ~ \u00da\u00af\u00d9\u2039\u00d9\u201e\u00d9\u0090 \u00d8\u00b3\u00d9\u2020\u00da\u00af\u00d9\u2026","duration":15},{"id":1271055,"name":"Tm- Khale","duration":29},{"id":1313446,"name":"Dooset Daram Ak","duration":29},{"id":1309555,"name":"Boos Bedeh 2","duration":29},{"id":1157843,"name":"Persian Ringtone","duration":26},{"id":227492,"name":"Delakam","duration":29},{"id":1293538,"name":"Naz Dare Che Way","duration":26},{"id":1036727,"name":"gham","duration":23},{"id":222713,"name":"Shadmehr Aghili","duration":22},{"id":16529,"name":"persian night","duration":30},{"id":894591,"name":"Every Night Solitude","duration":29},{"id":1052746,"name":"The Lom pt 2","duration":26},{"id":1041343,"name":"Dont Die","duration":27},{"id":1052741,"name":"The Lom","duration":29},{"id":1250413,"name":"Asheqt","duration":28},{"id":1199954,"name":"Shadmaher A Mahal","duration":28},{"id":62099,"name":"Mara Beboos ~ \u00d9\u2026\u00d8\u00b1\u00d8\u00a7 \u00d8\u00a8\u00d8\u00a8\u00d9\u02c6\u00d8\u00b3","duration":30},{"id":18474,"name":"Mesle Yek Zan (2) \u00d9\u2026\u00d8\u00ab\u00d9\u201e \u00db\u0152\u00da\u00a9 \u00d8\u00b2\u00d9\u2020","duration":29},{"id":40040,"name":"Morghe Sahar ~ \u00d9\u2026\u00d8\u00b1\u00d8\u00ba \u00d8\u00b3\u00d8\u00ad\u00d8\u00b1","duration":30},{"id":878242,"name":"Persian Guitar","duration":28},{"id":1040633,"name":"Mesle Khodet","duration":27},{"id":1271065,"name":"Del","duration":29},{"id":1265628,"name":"Asheghe Divonee","duration":29},{"id":1307448,"name":"Good Song","duration":29},{"id":227488,"name":"Marde Royai","duration":29},{"id":1220084,"name":"I Love You","duration":23},{"id":1154821,"name":"Sheydaei - Chavoshi","duration":30},{"id":380411,"name":"Farsi","duration":29},{"id":1130336,"name":"Niyaz - Ghazal","duration":29},{"id":35152,"name":"Ey Iran - National Anthem Imperial Iran","duration":30},{"id":1223621,"name":"Rsull Allh","duration":29},{"id":28364,"name":"Mongoli Brat","duration":28},{"id":35983,"name":"Ey Iran - National Anthem of a Free Iran","duration":30},{"id":1255794,"name":"Persian Techno","duration":29},{"id":60174,"name":"Ey Iran - National Anthem in Zoroastrian","duration":29},{"id":1311244,"name":"Avaze Masnavi Nava","duration":29},{"id":181707,"name":"Booye Pirahane Yusef","duration":28},{"id":1308200,"name":"Chakle Chakle","duration":17},{"id":1349022,"name":"Paimaana Tone","duration":14},{"id":1360532,"name":"Yalake Message","duration":15},{"id":1090263,"name":"arar bagisla","duration":24},{"id":1194538,"name":"Whistle","duration":9},{"id":882756,"name":"Vaghti Ba Mani","duration":29},{"id":1278055,"name":"Hala Vayvayvay","duration":29},{"id":302006,"name":"Persian Guitar","duration":22},{"id":1130326,"name":"Dandini","duration":28},{"id":1285449,"name":"Ba Siasat","duration":15},{"id":904044,"name":"Die For You","duration":27},{"id":1040636,"name":"Asal","duration":29},{"id":62921,"name":"Baskon","duration":29},{"id":350182,"name":"Fadaye Saret","duration":28},{"id":22746,"name":"Vay Vay ~ \u00d9\u02c6\u00d8\u00a7\u00db\u0152 \u00d9\u02c6\u00d8\u00a7\u00db\u0152 \u00d8\u00ac\u00d9\u02c6\u00d9\u2020 \u00d9\u2026\u00d8\u00b1\u00db\u0152\u00d9\u2026","duration":29},{"id":59637,"name":"Ey Iran - National Anthem of a Free Iran","duration":30},{"id":965599,"name":"Flute - Tula","duration":29},{"id":245820,"name":"Delam Shekaste","duration":19},{"id":21840,"name":"TekNo TekYes","duration":28},{"id":99761,"name":"HeyDarZadeh II","duration":29},{"id":364581,"name":"Sargozat-iranimusic","duration":28},{"id":895121,"name":"Tarane Iran","duration":29},{"id":1040634,"name":"Tanha","duration":29},{"id":1089534,"name":"ashegh","duration":18},{"id":904066,"name":"Hala Vay Vay","duration":29},{"id":84701,"name":"Booseh Yani Zelzeleh, \u00d8\u00a8\u00d9\u02c6\u00d8\u00b3\u00d9\u2021 \u00db\u0152\u00d8\u00b9\u00d9\u2020\u00db\u0152 \u00d8\u00b2\u00d9\u201e\u00d8\u00b2\u00d9\u201e\u00d9\u2021","duration":29},{"id":1173901,"name":"Anar Anar","duration":29},{"id":1279918,"name":"Zamin Saafe Azizam","duration":29},{"id":1220963,"name":"Ye Mosht Sarbaz","duration":16},{"id":57417,"name":"Alo Alo","duration":23},{"id":1014301,"name":"Cool Persian Guitar","duration":29},{"id":379559,"name":"Persian Guitar","duration":28},{"id":1040695,"name":"Ey Joonam","duration":18},{"id":173925,"name":"Mast Guitat","duration":15},{"id":371672,"name":"Rumi -remix -sogand","duration":29},{"id":901866,"name":"Iraj","duration":29},{"id":378221,"name":"Nokia Persian","duration":29},{"id":343676,"name":"Persian Guitar","duration":28},{"id":84606,"name":"Na Na Na","duration":13},{"id":1280041,"name":"Shohreh- Khodeti","duration":29},{"id":1271060,"name":"Tm- Dokhtare Bandar","duration":29},{"id":933652,"name":"Guitare Koli","duration":25},{"id":58780,"name":"Safari Brat ~ \u00d8\u00b3\u00d9\u0081\u00d8\u00b1\u00db\u0152 \u00d8\u00a8\u00d8\u00af \u00d8\u00b9\u00d9\u2020\u00d9\u201a","duration":28},{"id":350981,"name":"Persian Guitar","duration":28},{"id":248710,"name":"Payad","duration":19},{"id":1259696,"name":"Club Mix","duration":29},{"id":1025737,"name":"Sadness Time","duration":29},{"id":825792,"name":"Best Guitar 2011","duration":28},{"id":84700,"name":"Booseh Yani Zelzeleh (Chorus) \u00d8\u00a8\u00d9\u02c6\u00d8\u00b3\u00d9\u2021 \u00db\u0152\u00d8\u00b9\u00d9\u2020\u00db\u0152","duration":30},{"id":1174064,"name":"Persian","duration":29},{"id":1010727,"name":"Persian Guitar","duration":9},{"id":46176,"name":"Safari Brat ~ \u00d8\u00b3\u00d9\u0081\u00d8\u00b1\u00db\u0152 \u00d8\u00a8\u00d8\u00af \u00d8\u00b9\u00d9\u2020\u00d9\u201a","duration":28},{"id":93875,"name":"Disco Kojast? ~ \u00d8\u00af\u00db\u0152\u00d8\u00b3\u00da\u00a9\u00d9\u02c6 \u00da\u00a9\u00d8\u00ac\u00d8\u00a7\u00d8\u00b3\u00d8\u00aa\u00d8\u0178","duration":25},{"id":61990,"name":"Gozasht ~ \u00da\u00af\u00d8\u00b0\u00d8\u00b4\u00d8\u00aa","duration":30},{"id":1040572,"name":"Andy  Kouros-Topoly","duration":25},{"id":1293528,"name":"Kafie","duration":22},{"id":133239,"name":"Ringtone Persia","duration":18},{"id":248754,"name":"In Chee Messie","duration":28},{"id":73948,"name":"Baskon","duration":29},{"id":1305685,"name":"Saeed Asayesh","duration":17},{"id":151329,"name":"Setar-piano","duration":18},{"id":864604,"name":"Guitar Songg Irani","duration":18},{"id":224089,"name":"Nariman","duration":29},{"id":1311324,"name":"Kam Kam","duration":29},{"id":62090,"name":"Blood Games ~ \u00d8\u00ae\u00d9\u02c6\u00d9\u2020 \u00d8\u00a8\u00d8\u00a7\u00d8\u00b2\u00db\u0152","duration":28},{"id":890516,"name":"Arezoome","duration":29},{"id":99758,"name":"Persian Guy","duration":30},{"id":48042,"name":"Niyayesh ~ \u00d9\u2020\u00db\u0152\u00d8\u00a7\u00db\u0152\u00d8\u00b4","duration":25}]}